%!PS-Adobe-3.0 EPSF-3.0 
%%BoundingBox: 0 0 497 203
%%Pages: 0
%%Creator: LibreOffice 6.1
%%Title: none
%%CreationDate: none
%%LanguageLevel: 2
%%EndComments
%%BeginProlog
%%BeginResource: procset SDRes-Prolog 1.0 0
/b4_inc_state save def
/dict_count countdictstack def
/op_count count 1 sub def
userdict begin
0 setgray 0 setlinecap 1 setlinewidth 0 setlinejoin 10 setmiterlimit[] 0 setdash newpath
/languagelevel where {pop languagelevel 1 ne {false setstrokeadjust false setoverprint} if} if
/bdef {bind def} bind def
/c {setrgbcolor} bdef
/l {neg lineto} bdef
/rl {neg rlineto} bdef
/lc {setlinecap} bdef
/lj {setlinejoin} bdef
/lw {setlinewidth} bdef
/ml {setmiterlimit} bdef
/ld {setdash} bdef
/m {neg moveto} bdef
/ct {6 2 roll neg 6 2 roll neg 6 2 roll neg curveto} bdef
/r {rotate} bdef
/t {neg translate} bdef
/s {scale} bdef
/sw {show} bdef
/gs {gsave} bdef
/gr {grestore} bdef
/f {findfont dup length dict begin
{1 index /FID ne {def} {pop pop} ifelse} forall /Encoding ISOLatin1Encoding def
currentdict end /NFont exch definefont pop /NFont findfont} bdef
/p {closepath} bdef
/sf {scalefont setfont} bdef
/ef {eofill}bdef
/pc {closepath stroke}bdef
/ps {stroke}bdef
/pum {matrix currentmatrix}bdef
/pom {setmatrix}bdef
/bs {/aString exch def /nXOfs exch def /nWidth exch def currentpoint nXOfs 0 rmoveto pum nWidth aString stringwidth pop div 1 scale aString show pom moveto} bdef
%%EndResource
%%EndProlog
%%BeginSetup
%%EndSetup
%%Page: 1 1
%%BeginPageSetup
%%EndPageSetup
pum
0.02835 0.02835 s 
0 -7158 t
/tm matrix currentmatrix def
tm setmatrix
-2297 -3528 t 
1 1 s 
gs
1.000 1.000 1.000 c 2538 3553 m  5584 3553 l  5584 5076 l  2538 5076 l 
2538 3553 l  p ef
gr
gs
49.99508 lw 383.02719 ml 0.003 0.003 0.003 c 2537 3552 m  5583 3552 l  5583 5076 l 
2537 5076 l  2537 3552 l  pc
gr
pum
2605 4186 t
0.003 0.003 0.003 c 102 -186 m  324 -186 l  324 -232 l  102 -232 l  102 -362 l 
333 -362 l  333 -408 l  50 -408 l  50 0 l  343 0 l  343 -46 l  102 -46 l 
102 -186 l  p ef
457 -293 m  410 -293 l  410 0 l  457 0 l  457 -293 l  p
457 -408 m  410 -408 l  410 -349 l  457 -349 l  457 -408 l  p ef
637 -293 m  589 -293 l  589 -373 l  543 -373 l  543 -293 l  503 -293 l 
503 -255 l  543 -255 l  543 -33 l  543 -3 563 13 599 13 ct 611 13 621 12 637 9 ct 
637 -30 l  630 -28 624 -28 615 -28 ct 595 -28 589 -33 589 -54 ct 589 -255 l 
637 -255 l  637 -293 l  p ef
691 -408 m  691 0 l  738 0 l  738 -161 l  738 -221 769 -260 817 -260 ct 833 -260 847 -256 858 -247 ct 
872 -237 877 -223 877 -203 ct 877 0 l  924 0 l  924 -221 l  924 -270 888 -301 831 -301 ct 
790 -301 765 -288 738 -252 ct 738 -408 l  691 -408 l  p ef
1248 -131 m  1248 -176 1244 -202 1236 -224 ct 1217 -272 1172 -301 1118 -301 ct 
1036 -301 983 -239 983 -143 ct 983 -46 1034 13 1116 13 ct 1183 13 1230 -25 1242 -89 ct 
1195 -89 l  1182 -50 1156 -30 1118 -30 ct 1088 -30 1063 -44 1048 -68 ct 1036 -85 1033 -102 1032 -131 ct 
1248 -131 l  p
1033 -169 m  1037 -223 1070 -258 1117 -258 ct 1164 -258 1197 -221 1197 -169 ct 
1033 -169 l  p ef
1309 -293 m  1309 0 l  1356 0 l  1356 -152 l  1356 -223 1385 -254 1449 -252 ct 
1449 -300 l  1442 -300 1437 -301 1432 -301 ct 1401 -301 1378 -283 1352 -240 ct 
1352 -293 l  1309 -293 l  p ef
1652 -408 m  1652 0 l  1699 0 l  1699 -161 l  1699 -221 1730 -260 1778 -260 ct 
1794 -260 1808 -256 1819 -247 ct 1833 -237 1838 -223 1838 -203 ct 1838 0 l  1885 0 l 
1885 -221 l  1885 -270 1849 -301 1792 -301 ct 1751 -301 1726 -288 1699 -252 ct 
1699 -408 l  1652 -408 l  p ef
2209 -131 m  2209 -176 2205 -202 2197 -224 ct 2178 -272 2133 -301 2079 -301 ct 
1997 -301 1944 -239 1944 -143 ct 1944 -46 1995 13 2077 13 ct 2144 13 2191 -25 2203 -89 ct 
2156 -89 l  2143 -50 2117 -30 2079 -30 ct 2049 -30 2024 -44 2009 -68 ct 1997 -85 1994 -102 1993 -131 ct 
2209 -131 l  p
1994 -169 m  1998 -223 2031 -258 2078 -258 ct 2125 -258 2158 -221 2158 -169 ct 
1994 -169 l  p ef
2530 -27 m  2525 -26 2523 -26 2520 -26 ct 2504 -26 2495 -35 2495 -49 ct 2495 -221 l 
2495 -273 2457 -301 2385 -301 ct 2342 -301 2308 -289 2287 -267 ct 2274 -252 2268 -235 2267 -206 ct 
2314 -206 l  2318 -242 2339 -258 2383 -258 ct 2426 -258 2448 -242 2448 -214 ct 
2448 -202 l  2448 -182 2438 -175 2400 -170 ct 2334 -161 2324 -159 2306 -152 ct 
2272 -137 2254 -112 2254 -74 ct 2254 -21 2291 13 2351 13 ct 2388 13 2417 0 2450 -30 ct 
2453 0 2468 13 2498 13 ct 2508 13 2514 12 2530 8 ct 2530 -27 l  p
2448 -92 m  2448 -76 2444 -67 2430 -54 ct 2411 -37 2388 -28 2361 -28 ct 2324 -28 2303 -45 2303 -75 ct 
2303 -105 2323 -121 2374 -128 ct 2423 -135 2433 -137 2448 -145 ct 2448 -92 l 
p ef
2579 -293 m  2579 0 l  2626 0 l  2626 -152 l  2626 -223 2655 -254 2719 -252 ct 
2719 -300 l  2712 -300 2707 -301 2702 -301 ct 2671 -301 2648 -283 2622 -240 ct 
2622 -293 l  2579 -293 l  p ef
2868 -293 m  2820 -293 l  2820 -373 l  2774 -373 l  2774 -293 l  2734 -293 l 
2734 -255 l  2774 -255 l  2774 -33 l  2774 -3 2794 13 2830 13 ct 2842 13 2852 12 2868 9 ct 
2868 -30 l  2861 -28 2855 -28 2846 -28 ct 2826 -28 2820 -33 2820 -54 ct 2820 -255 l 
2868 -255 l  2868 -293 l  p ef
pom
gs
1.000 1.000 1.000 c 5076 9136 m  9137 9136 l  9137 10660 l  5076 10660 l 
5076 9136 l  p ef
gr
gs
49.99508 lw 383.02719 ml 5075 9135 m  9137 9135 l  9137 10659 l  5075 10659 l 
5075 9135 l  pc
gr
pum
3288 4846 t
39 -293 m  39 0 l  86 0 l  86 -184 l  86 -226 117 -260 155 -260 ct 190 -260 209 -239 209 -202 ct 
209 0 l  256 0 l  256 -184 l  256 -226 287 -260 325 -260 ct 359 -260 379 -238 379 -202 ct 
379 0 l  426 0 l  426 -219 l  426 -272 396 -301 341 -301 ct 302 -301 278 -289 251 -256 ct 
234 -288 210 -301 172 -301 ct 133 -301 107 -287 82 -252 ct 82 -293 l  39 -293 l 
p ef
618 -301 m  535 -301 486 -242 486 -144 ct 486 -45 535 13 619 13 ct 701 13 751 -46 751 -142 ct 
751 -243 703 -301 618 -301 ct p
619 -258 m  671 -258 702 -215 702 -142 ct 702 -73 670 -30 619 -30 ct 567 -30 535 -73 535 -144 ct 
535 -215 567 -258 619 -258 ct p ef
1052 -408 m  1005 -408 l  1005 -256 l  986 -285 954 -301 915 -301 ct 839 -301 790 -240 790 -147 ct 
790 -48 838 13 917 13 ct 957 13 985 -2 1010 -38 ct 1010 0 l  1052 0 l  1052 -408 l 
p
923 -257 m  973 -257 1005 -213 1005 -143 ct 1005 -75 973 -31 924 -31 ct 872 -31 838 -76 838 -144 ct 
838 -212 872 -257 923 -257 ct p ef
1371 -131 m  1371 -176 1367 -202 1359 -224 ct 1340 -272 1295 -301 1241 -301 ct 
1159 -301 1106 -239 1106 -143 ct 1106 -46 1157 13 1239 13 ct 1306 13 1353 -25 1365 -89 ct 
1318 -89 l  1305 -50 1279 -30 1241 -30 ct 1211 -30 1186 -44 1171 -68 ct 1159 -85 1156 -102 1155 -131 ct 
1371 -131 l  p
1156 -169 m  1160 -223 1193 -258 1240 -258 ct 1287 -258 1320 -221 1320 -169 ct 
1156 -169 l  p ef
1478 -408 m  1431 -408 l  1431 0 l  1478 0 l  1478 -408 l  p ef
pom
pum
5280 9770 t
152 -301 m  69 -301 20 -242 20 -144 ct 20 -45 69 13 153 13 ct 235 13 285 -46 285 -142 ct 
285 -243 237 -301 152 -301 ct p
153 -258 m  205 -258 236 -215 236 -142 ct 236 -73 204 -30 153 -30 ct 101 -30 69 -73 69 -144 ct 
69 -215 101 -258 153 -258 ct p ef
348 -293 m  348 0 l  395 0 l  395 -152 l  395 -223 424 -254 488 -252 ct 488 -300 l 
481 -300 476 -301 471 -301 ct 440 -301 417 -283 391 -240 ct 391 -293 l  348 -293 l 
p ef
691 -408 m  691 0 l  738 0 l  738 -161 l  738 -221 769 -260 817 -260 ct 833 -260 847 -256 858 -247 ct 
872 -237 877 -223 877 -203 ct 877 0 l  924 0 l  924 -221 l  924 -270 888 -301 831 -301 ct 
790 -301 765 -288 738 -252 ct 738 -408 l  691 -408 l  p ef
1248 -131 m  1248 -176 1244 -202 1236 -224 ct 1217 -272 1172 -301 1118 -301 ct 
1036 -301 983 -239 983 -143 ct 983 -46 1034 13 1116 13 ct 1183 13 1230 -25 1242 -89 ct 
1195 -89 l  1182 -50 1156 -30 1118 -30 ct 1088 -30 1063 -44 1048 -68 ct 1036 -85 1033 -102 1032 -131 ct 
1248 -131 l  p
1033 -169 m  1037 -223 1070 -258 1117 -258 ct 1164 -258 1197 -221 1197 -169 ct 
1033 -169 l  p ef
1569 -27 m  1564 -26 1562 -26 1559 -26 ct 1543 -26 1534 -35 1534 -49 ct 1534 -221 l 
1534 -273 1496 -301 1424 -301 ct 1381 -301 1347 -289 1326 -267 ct 1313 -252 1307 -235 1306 -206 ct 
1353 -206 l  1357 -242 1378 -258 1422 -258 ct 1465 -258 1487 -242 1487 -214 ct 
1487 -202 l  1487 -182 1477 -175 1439 -170 ct 1373 -161 1363 -159 1345 -152 ct 
1311 -137 1293 -112 1293 -74 ct 1293 -21 1330 13 1390 13 ct 1427 13 1456 0 1489 -30 ct 
1492 0 1507 13 1537 13 ct 1547 13 1553 12 1569 8 ct 1569 -27 l  p
1487 -92 m  1487 -76 1483 -67 1469 -54 ct 1450 -37 1427 -28 1400 -28 ct 1363 -28 1342 -45 1342 -75 ct 
1342 -105 1362 -121 1413 -128 ct 1462 -135 1472 -137 1487 -145 ct 1487 -92 l 
p ef
1618 -293 m  1618 0 l  1665 0 l  1665 -152 l  1665 -223 1694 -254 1758 -252 ct 
1758 -300 l  1751 -300 1746 -301 1741 -301 ct 1710 -301 1687 -283 1661 -240 ct 
1661 -293 l  1618 -293 l  p ef
1907 -293 m  1859 -293 l  1859 -373 l  1813 -373 l  1813 -293 l  1773 -293 l 
1773 -255 l  1813 -255 l  1813 -33 l  1813 -3 1833 13 1869 13 ct 1881 13 1891 12 1907 9 ct 
1907 -30 l  1900 -28 1894 -28 1885 -28 ct 1865 -28 1859 -33 1859 -54 ct 1859 -255 l 
1907 -255 l  1907 -293 l  p ef
2221 -149 m  2105 -149 l  2105 -265 l  2066 -265 l  2066 -149 l  1950 -149 l 
1950 -110 l  2066 -110 l  2066 6 l  2105 6 l  2105 -110 l  2221 -110 l 
2221 -149 l  p ef
2345 -408 m  2293 -408 l  2293 0 l  2546 0 l  2546 -46 l  2345 -46 l  2345 -408 l 
p ef
2776 0 m  2918 -408 l  2862 -408 l  2749 -63 l  2630 -408 l  2574 -408 l 
2720 0 l  2776 0 l  p ef
3194 -122 m  3236 0 l  3294 0 l  3151 -408 l  3084 -408 l  2939 0 l  2994 0 l 
3037 -122 l  3194 -122 l  p
3179 -166 m  3050 -166 l  3117 -352 l  3179 -166 l  p ef
3352 0 m  3509 0 l  3612 0 3675 -77 3675 -204 ct 3675 -331 3612 -408 3509 -408 ct 
3352 -408 l  3352 0 l  p
3404 -46 m  3404 -362 l  3500 -362 l  3580 -362 3623 -308 3623 -204 ct 3623 -100 3580 -46 3500 -46 ct 
3404 -46 l  p ef
pom
gs
1.000 1.000 1.000 c 15735 6344 m  19797 6344 l  19797 7868 l  15735 7868 l 
15735 6344 l  p ef
gr
gs
49.99508 lw 383.02719 ml 15735 6344 m  19796 6344 l  19796 7867 l  15735 7867 l 
15735 6344 l  pc
gr
pum
6334 10430 t
39 -293 m  39 0 l  86 0 l  86 -184 l  86 -226 117 -260 155 -260 ct 190 -260 209 -239 209 -202 ct 
209 0 l  256 0 l  256 -184 l  256 -226 287 -260 325 -260 ct 359 -260 379 -238 379 -202 ct 
379 0 l  426 0 l  426 -219 l  426 -272 396 -301 341 -301 ct 302 -301 278 -289 251 -256 ct 
234 -288 210 -301 172 -301 ct 133 -301 107 -287 82 -252 ct 82 -293 l  39 -293 l 
p ef
618 -301 m  535 -301 486 -242 486 -144 ct 486 -45 535 13 619 13 ct 701 13 751 -46 751 -142 ct 
751 -243 703 -301 618 -301 ct p
619 -258 m  671 -258 702 -215 702 -142 ct 702 -73 670 -30 619 -30 ct 567 -30 535 -73 535 -144 ct 
535 -215 567 -258 619 -258 ct p ef
1052 -408 m  1005 -408 l  1005 -256 l  986 -285 954 -301 915 -301 ct 839 -301 790 -240 790 -147 ct 
790 -48 838 13 917 13 ct 957 13 985 -2 1010 -38 ct 1010 0 l  1052 0 l  1052 -408 l 
p
923 -257 m  973 -257 1005 -213 1005 -143 ct 1005 -75 973 -31 924 -31 ct 872 -31 838 -76 838 -144 ct 
838 -212 872 -257 923 -257 ct p ef
1371 -131 m  1371 -176 1367 -202 1359 -224 ct 1340 -272 1295 -301 1241 -301 ct 
1159 -301 1106 -239 1106 -143 ct 1106 -46 1157 13 1239 13 ct 1306 13 1353 -25 1365 -89 ct 
1318 -89 l  1305 -50 1279 -30 1241 -30 ct 1211 -30 1186 -44 1171 -68 ct 1159 -85 1156 -102 1155 -131 ct 
1371 -131 l  p
1156 -169 m  1160 -223 1193 -258 1240 -258 ct 1287 -258 1320 -221 1320 -169 ct 
1156 -169 l  p ef
1478 -408 m  1431 -408 l  1431 0 l  1478 0 l  1478 -408 l  p ef
pom
pum
15881 6803 t
84 -127 m  88 -127 l  102 -127 l  139 -127 158 -109 158 -76 ct 158 -42 138 -21 103 -21 ct 
66 -21 48 -39 46 -80 ct 12 -80 l  14 -58 18 -43 24 -31 ct 38 -4 64 9 101 9 ct 157 9 193 -25 193 -77 ct 
193 -112 179 -131 147 -142 ct 172 -152 185 -171 185 -199 ct 185 -246 154 -275 102 -275 ct 
48 -275 19 -245 18 -186 ct 51 -186 l  52 -203 53 -213 58 -221 ct 65 -237 82 -246 103 -246 ct 
133 -246 150 -228 150 -198 ct 150 -179 144 -167 129 -160 ct 120 -157 107 -155 84 -155 ct 
84 -127 l  p ef
320 -119 m  230 -119 l  230 -92 l  320 -92 l  320 -119 l  p ef
534 -89 m  534 -119 532 -138 526 -152 ct 513 -185 483 -205 446 -205 ct 390 -205 354 -163 354 -97 ct 
354 -31 389 9 445 9 ct 491 9 522 -17 530 -60 ct 498 -60 l  489 -34 472 -20 446 -20 ct 
426 -20 409 -29 398 -46 ct 390 -58 388 -69 387 -89 ct 534 -89 l  p
388 -115 m  391 -152 413 -176 445 -176 ct 478 -176 500 -151 500 -115 ct 388 -115 l 
p ef
608 -278 m  576 -278 l  576 0 l  608 0 l  608 -278 l  p ef
830 -89 m  830 -119 828 -138 822 -152 ct 809 -185 779 -205 742 -205 ct 686 -205 650 -163 650 -97 ct 
650 -31 685 9 741 9 ct 787 9 818 -17 826 -60 ct 794 -60 l  785 -34 768 -20 742 -20 ct 
722 -20 705 -29 694 -46 ct 686 -58 684 -69 683 -89 ct 830 -89 l  p
684 -115 m  687 -152 709 -176 741 -176 ct 774 -176 796 -151 796 -115 ct 684 -115 l 
p ef
874 -200 m  874 0 l  906 0 l  906 -126 l  906 -154 927 -177 953 -177 ct 976 -177 989 -163 989 -137 ct 
989 0 l  1021 0 l  1021 -125 l  1021 -154 1042 -177 1068 -177 ct 1092 -177 1105 -162 1105 -137 ct 
1105 0 l  1137 0 l  1137 -149 l  1137 -185 1117 -205 1079 -205 ct 1053 -205 1037 -197 1018 -175 ct 
1006 -196 990 -205 964 -205 ct 938 -206 920 -196 903 -172 ct 903 -200 l  874 -200 l 
p ef
1359 -89 m  1359 -119 1357 -138 1351 -152 ct 1338 -185 1308 -205 1271 -205 ct 
1215 -205 1179 -163 1179 -97 ct 1179 -31 1214 9 1270 9 ct 1316 9 1347 -17 1355 -60 ct 
1323 -60 l  1314 -34 1297 -20 1271 -20 ct 1251 -20 1234 -29 1223 -46 ct 1215 -58 1213 -69 1212 -89 ct 
1359 -89 l  p
1213 -115 m  1216 -152 1238 -176 1270 -176 ct 1303 -176 1325 -151 1325 -115 ct 
1213 -115 l  p ef
1403 -200 m  1403 0 l  1435 0 l  1435 -110 l  1435 -151 1456 -177 1489 -177 ct 
1514 -177 1530 -162 1530 -138 ct 1530 0 l  1562 0 l  1562 -151 l  1562 -184 1537 -205 1498 -205 ct 
1469 -206 1450 -194 1432 -166 ct 1432 -200 l  1403 -200 l  p ef
1685 -200 m  1652 -200 l  1652 -255 l  1620 -255 l  1620 -200 l  1593 -200 l 
1593 -174 l  1620 -174 l  1620 -23 l  1620 -2 1634 9 1659 9 ct 1667 9 1674 8 1685 6 ct 
1685 -20 l  1680 -19 1676 -19 1670 -19 ct 1656 -19 1652 -23 1652 -37 ct 1652 -174 l 
1685 -174 l  1685 -200 l  p ef
2082 0 m  2153 -278 l  2113 -278 l  2062 -52 l  1999 -278 l  1961 -278 l 
1899 -52 l  1847 -278 l  1807 -278 l  1879 0 l  1917 0 l  1980 -228 l 
2044 0 l  2082 0 l  p ef
2216 -200 m  2185 -200 l  2185 0 l  2216 0 l  2216 -200 l  p
2216 -278 m  2184 -278 l  2184 -238 l  2216 -238 l  2216 -278 l  p ef
2271 -200 m  2271 0 l  2303 0 l  2303 -110 l  2303 -151 2324 -177 2357 -177 ct 
2382 -177 2398 -162 2398 -138 ct 2398 0 l  2430 0 l  2430 -151 l  2430 -184 2405 -205 2366 -205 ct 
2337 -206 2318 -194 2300 -166 ct 2300 -200 l  2271 -200 l  p ef
2644 -278 m  2612 -278 l  2612 -174 l  2599 -194 2577 -205 2551 -205 ct 2499 -205 2465 -163 2465 -100 ct 
2465 -33 2498 9 2552 9 ct 2579 9 2598 -1 2615 -26 ct 2615 0 l  2644 0 l  2644 -278 l 
p
2556 -175 m  2590 -175 2612 -145 2612 -97 ct 2612 -51 2590 -21 2556 -21 ct 2521 -21 2498 -52 2498 -98 ct 
2498 -144 2521 -175 2556 -175 ct p ef
2721 -278 m  2689 -278 l  2689 0 l  2721 0 l  2721 -78 l  2752 -108 l 
2819 0 l  2858 0 l  2777 -131 l  2846 -200 l  2805 -200 l  2721 -115 l 
2721 -278 l  p ef
3053 -89 m  3053 -119 3051 -138 3045 -152 ct 3032 -185 3002 -205 2965 -205 ct 
2909 -205 2873 -163 2873 -97 ct 2873 -31 2908 9 2964 9 ct 3010 9 3041 -17 3049 -60 ct 
3017 -60 l  3008 -34 2991 -20 2965 -20 ct 2945 -20 2928 -29 2917 -46 ct 2909 -58 2907 -69 2906 -89 ct 
3053 -89 l  p
2907 -115 m  2910 -152 2932 -176 2964 -176 ct 2997 -176 3019 -151 3019 -115 ct 
2907 -115 l  p ef
3236 -144 m  3235 -183 3210 -205 3163 -205 ct 3117 -205 3087 -181 3087 -144 ct 
3087 -113 3103 -98 3150 -87 ct 3180 -79 l  3202 -74 3211 -66 3211 -52 ct 3211 -33 3192 -20 3164 -20 ct 
3147 -20 3133 -25 3125 -34 ct 3120 -39 3117 -45 3115 -59 ct 3082 -59 l  3083 -13 3109 9 3162 9 ct 
3212 9 3244 -16 3244 -54 ct 3244 -84 3227 -100 3187 -110 ct 3157 -117 l  3131 -123 3120 -132 3120 -146 ct 
3120 -164 3136 -176 3162 -176 ct 3188 -176 3202 -165 3202 -144 ct 3236 -144 l 
p ef
3427 -144 m  3426 -183 3401 -205 3354 -205 ct 3308 -205 3278 -181 3278 -144 ct 
3278 -113 3294 -98 3341 -87 ct 3371 -79 l  3393 -74 3402 -66 3402 -52 ct 3402 -33 3383 -20 3355 -20 ct 
3338 -20 3324 -25 3316 -34 ct 3311 -39 3308 -45 3306 -59 ct 3273 -59 l  3274 -13 3300 9 3353 9 ct 
3403 9 3435 -16 3435 -54 ct 3435 -84 3418 -100 3378 -110 ct 3348 -117 l  3322 -123 3311 -132 3311 -146 ct 
3311 -164 3327 -176 3353 -176 ct 3379 -176 3393 -165 3393 -144 ct 3427 -144 l 
p ef
3645 -89 m  3645 -119 3643 -138 3637 -152 ct 3624 -185 3594 -205 3557 -205 ct 
3501 -205 3465 -163 3465 -97 ct 3465 -31 3500 9 3556 9 ct 3602 9 3633 -17 3641 -60 ct 
3609 -60 l  3600 -34 3583 -20 3557 -20 ct 3537 -20 3520 -29 3509 -46 ct 3501 -58 3499 -69 3498 -89 ct 
3645 -89 l  p
3499 -115 m  3502 -152 3524 -176 3556 -176 ct 3589 -176 3611 -151 3611 -115 ct 
3499 -115 l  p ef
3720 -278 m  3688 -278 l  3688 0 l  3720 0 l  3720 -278 l  p ef
pom
pum
15806 7259 t
27 -200 m  27 0 l  59 0 l  59 -126 l  59 -154 80 -177 106 -177 ct 129 -177 142 -163 142 -137 ct 
142 0 l  174 0 l  174 -125 l  174 -154 195 -177 221 -177 ct 245 -177 258 -162 258 -137 ct 
258 0 l  290 0 l  290 -149 l  290 -185 270 -205 232 -205 ct 206 -205 190 -197 171 -175 ct 
159 -196 143 -205 117 -205 ct 91 -206 73 -196 56 -172 ct 56 -200 l  27 -200 l 
p ef
422 -205 m  365 -205 332 -165 332 -98 ct 332 -31 365 9 422 9 ct 478 9 512 -31 512 -96 ct 
512 -166 480 -205 422 -205 ct p
422 -176 m  458 -176 479 -146 479 -97 ct 479 -50 457 -20 422 -20 ct 387 -20 365 -50 365 -98 ct 
365 -146 387 -176 422 -176 ct p ef
718 -278 m  686 -278 l  686 -174 l  673 -194 651 -205 625 -205 ct 573 -205 539 -163 539 -100 ct 
539 -33 572 9 626 9 ct 653 9 672 -1 689 -26 ct 689 0 l  718 0 l  718 -278 l 
p
630 -175 m  664 -175 686 -145 686 -97 ct 686 -51 664 -21 630 -21 ct 595 -21 572 -52 572 -98 ct 
572 -144 595 -175 630 -175 ct p ef
936 -89 m  936 -119 934 -138 928 -152 ct 915 -185 885 -205 848 -205 ct 792 -205 756 -163 756 -97 ct 
756 -31 791 9 847 9 ct 893 9 924 -17 932 -60 ct 900 -60 l  891 -34 874 -20 848 -20 ct 
828 -20 811 -29 800 -46 ct 792 -58 790 -69 789 -89 ct 936 -89 l  p
790 -115 m  793 -152 815 -176 847 -176 ct 880 -176 902 -151 902 -115 ct 790 -115 l 
p ef
1011 -278 m  979 -278 l  979 0 l  1011 0 l  1011 -278 l  p ef
1169 -200 m  1169 0 l  1201 0 l  1201 -104 l  1202 -152 1221 -173 1265 -172 ct 
1265 -205 l  1260 -205 1257 -205 1253 -205 ct 1233 -205 1217 -193 1199 -163 ct 
1199 -200 l  1169 -200 l  p ef
1465 -89 m  1465 -119 1463 -138 1457 -152 ct 1444 -185 1414 -205 1377 -205 ct 
1321 -205 1285 -163 1285 -97 ct 1285 -31 1320 9 1376 9 ct 1422 9 1453 -17 1461 -60 ct 
1429 -60 l  1420 -34 1403 -20 1377 -20 ct 1357 -20 1340 -29 1329 -46 ct 1321 -58 1319 -69 1318 -89 ct 
1465 -89 l  p
1319 -115 m  1322 -152 1344 -176 1376 -176 ct 1409 -176 1431 -151 1431 -115 ct 
1319 -115 l  p ef
1503 83 m  1535 83 l  1535 -21 l  1551 0 1570 9 1596 9 ct 1648 9 1681 -33 1681 -96 ct 
1681 -163 1648 -205 1596 -205 ct 1568 -206 1547 -194 1532 -170 ct 1532 -200 l 
1503 -200 l  1503 83 l  p
1590 -175 m  1625 -175 1648 -144 1648 -97 ct 1648 -52 1625 -21 1590 -21 ct 1556 -21 1535 -51 1535 -98 ct 
1535 -145 1556 -175 1590 -175 ct p ef
1719 -200 m  1719 0 l  1751 0 l  1751 -104 l  1752 -152 1771 -173 1815 -172 ct 
1815 -205 l  1810 -205 1807 -205 1803 -205 ct 1783 -205 1767 -193 1749 -163 ct 
1749 -200 l  1719 -200 l  p ef
2015 -89 m  2015 -119 2013 -138 2007 -152 ct 1994 -185 1964 -205 1927 -205 ct 
1871 -205 1835 -163 1835 -97 ct 1835 -31 1870 9 1926 9 ct 1972 9 2003 -17 2011 -60 ct 
1979 -60 l  1970 -34 1953 -20 1927 -20 ct 1907 -20 1890 -29 1879 -46 ct 1871 -58 1869 -69 1868 -89 ct 
2015 -89 l  p
1869 -115 m  1872 -152 1894 -176 1926 -176 ct 1959 -176 1981 -151 1981 -115 ct 
1869 -115 l  p ef
2199 -144 m  2198 -183 2173 -205 2126 -205 ct 2080 -205 2050 -181 2050 -144 ct 
2050 -113 2066 -98 2113 -87 ct 2143 -79 l  2165 -74 2174 -66 2174 -52 ct 2174 -33 2155 -20 2127 -20 ct 
2110 -20 2096 -25 2088 -34 ct 2083 -39 2080 -45 2078 -59 ct 2045 -59 l  2046 -13 2072 9 2125 9 ct 
2175 9 2207 -16 2207 -54 ct 2207 -84 2190 -100 2150 -110 ct 2120 -117 l  2094 -123 2083 -132 2083 -146 ct 
2083 -164 2099 -176 2125 -176 ct 2151 -176 2165 -165 2165 -144 ct 2199 -144 l 
p ef
2418 -89 m  2418 -119 2416 -138 2410 -152 ct 2397 -185 2367 -205 2330 -205 ct 
2274 -205 2238 -163 2238 -97 ct 2238 -31 2273 9 2329 9 ct 2375 9 2406 -17 2414 -60 ct 
2382 -60 l  2373 -34 2356 -20 2330 -20 ct 2310 -20 2293 -29 2282 -46 ct 2274 -58 2272 -69 2271 -89 ct 
2418 -89 l  p
2272 -115 m  2275 -152 2297 -176 2329 -176 ct 2362 -176 2384 -151 2384 -115 ct 
2272 -115 l  p ef
2461 -200 m  2461 0 l  2493 0 l  2493 -110 l  2493 -151 2514 -177 2547 -177 ct 
2572 -177 2588 -162 2588 -138 ct 2588 0 l  2620 0 l  2620 -151 l  2620 -184 2595 -205 2556 -205 ct 
2527 -206 2508 -194 2490 -166 ct 2490 -200 l  2461 -200 l  p ef
2743 -200 m  2710 -200 l  2710 -255 l  2678 -255 l  2678 -200 l  2651 -200 l 
2651 -174 l  2678 -174 l  2678 -23 l  2678 -2 2692 9 2717 9 ct 2725 9 2732 8 2743 6 ct 
2743 -20 l  2738 -19 2734 -19 2728 -19 ct 2714 -19 2710 -23 2710 -37 ct 2710 -174 l 
2743 -174 l  2743 -200 l  p ef
2809 -200 m  2778 -200 l  2778 0 l  2809 0 l  2809 -200 l  p
2809 -278 m  2777 -278 l  2777 -238 l  2809 -238 l  2809 -278 l  p ef
2863 -200 m  2863 0 l  2895 0 l  2895 -110 l  2895 -151 2916 -177 2949 -177 ct 
2974 -177 2990 -162 2990 -138 ct 2990 0 l  3022 0 l  3022 -151 l  3022 -184 2997 -205 2958 -205 ct 
2929 -206 2910 -194 2892 -166 ct 2892 -200 l  2863 -200 l  p ef
3202 -200 m  3202 -171 l  3186 -194 3168 -205 3143 -205 ct 3095 -205 3061 -160 3061 -96 ct 
3061 -63 3069 -38 3086 -18 ct 3101 -1 3120 9 3141 9 ct 3165 9 3182 -2 3199 -27 ct 
3199 -17 l  3199 37 3184 56 3144 56 ct 3117 56 3103 46 3100 23 ct 3068 23 l 
3071 60 3100 83 3144 83 ct 3173 83 3197 73 3210 57 ct 3226 39 3231 14 3231 -33 ct 
3231 -200 l  3202 -200 l  p
3146 -176 m  3180 -176 3199 -147 3199 -97 ct 3199 -49 3179 -20 3146 -20 ct 3114 -20 3094 -49 3094 -98 ct 
3094 -147 3114 -176 3146 -176 ct p ef
3463 -200 m  3430 -200 l  3430 -255 l  3398 -255 l  3398 -200 l  3371 -200 l 
3371 -174 l  3398 -174 l  3398 -23 l  3398 -2 3412 9 3437 9 ct 3445 9 3452 8 3463 6 ct 
3463 -20 l  3458 -19 3454 -19 3448 -19 ct 3434 -19 3430 -23 3430 -37 ct 3430 -174 l 
3463 -174 l  3463 -200 l  p ef
3498 -278 m  3498 0 l  3529 0 l  3529 -110 l  3529 -151 3551 -177 3583 -177 ct 
3594 -177 3604 -174 3612 -168 ct 3621 -162 3625 -152 3625 -138 ct 3625 0 l  3656 0 l 
3656 -151 l  3656 -184 3632 -205 3593 -205 ct 3565 -205 3548 -196 3529 -172 ct 
3529 -278 l  3498 -278 l  p ef
3878 -89 m  3878 -119 3876 -138 3870 -152 ct 3857 -185 3827 -205 3790 -205 ct 
3734 -205 3698 -163 3698 -97 ct 3698 -31 3733 9 3789 9 ct 3835 9 3866 -17 3874 -60 ct 
3842 -60 l  3833 -34 3816 -20 3790 -20 ct 3770 -20 3753 -29 3742 -46 ct 3734 -58 3732 -69 3731 -89 ct 
3878 -89 l  p
3732 -115 m  3735 -152 3757 -176 3789 -176 ct 3822 -176 3844 -151 3844 -115 ct 
3732 -115 l  p ef
pom
gs
100.99006 lw 773.71493 ml 0.003 0.746 0.949 c 3933 7105 m  15368 7105 l 
ps
gr
gs
0.003 0.746 0.949 c 15622 7105 m  15368 7233 l  15368 6978 l  15622 7105 l 
p ef
gr
gs
100.99006 lw 773.71493 ml 0.003 0.746 0.949 c 15622 7105 m  15368 7232 l 
15368 6978 l  15622 7105 l  pc
gr
gs
75.99252 lw 582.20133 ml 6104 9148 m  4055 7744 l  ps
gr
gs
3915 7648 m  4169 7683 l  4056 7746 l  4039 7873 l  3915 7648 l  p ef
gr
gs
75.99252 lw 582.20133 ml 3914 7647 m  4168 7682 l  4055 7745 l  4038 7872 l 
3914 7647 l  pc
gr
gs
1.000 1.000 1.000 c 8629 3553 m  11675 3553 l  11675 5076 l  8629 5076 l 
8629 3553 l  p ef
gr
gs
49.99508 lw 383.02719 ml 8628 3552 m  11675 3552 l  11675 5076 l  8628 5076 l 
8628 3552 l  pc
gr
pum
16251 7716 t
26 -200 m  26 0 l  58 0 l  58 -104 l  59 -152 78 -173 122 -172 ct 122 -205 l 
117 -205 114 -205 110 -205 ct 90 -205 74 -193 56 -163 ct 56 -200 l  26 -200 l 
p ef
322 -89 m  322 -119 320 -138 314 -152 ct 301 -185 271 -205 234 -205 ct 178 -205 142 -163 142 -97 ct 
142 -31 177 9 233 9 ct 279 9 310 -17 318 -60 ct 286 -60 l  277 -34 260 -20 234 -20 ct 
214 -20 197 -29 186 -46 ct 178 -58 176 -69 175 -89 ct 322 -89 l  p
176 -115 m  179 -152 201 -176 233 -176 ct 266 -176 288 -151 288 -115 ct 176 -115 l 
p ef
506 -144 m  505 -183 480 -205 433 -205 ct 387 -205 357 -181 357 -144 ct 357 -113 373 -98 420 -87 ct 
450 -79 l  472 -74 481 -66 481 -52 ct 481 -33 462 -20 434 -20 ct 417 -20 403 -25 395 -34 ct 
390 -39 387 -45 385 -59 ct 352 -59 l  353 -13 379 9 432 9 ct 482 9 514 -16 514 -54 ct 
514 -84 497 -100 457 -110 ct 427 -117 l  401 -123 390 -132 390 -146 ct 390 -164 406 -176 432 -176 ct 
458 -176 472 -165 472 -144 ct 506 -144 l  p ef
626 -200 m  593 -200 l  593 -255 l  561 -255 l  561 -200 l  534 -200 l 
534 -174 l  561 -174 l  561 -23 l  561 -2 575 9 600 9 ct 608 9 615 8 626 6 ct 
626 -20 l  621 -19 617 -19 611 -19 ct 597 -19 593 -23 593 -37 ct 593 -174 l 
626 -174 l  626 -200 l  p ef
845 -205 m  788 -205 755 -165 755 -98 ct 755 -31 788 9 845 9 ct 901 9 935 -31 935 -96 ct 
935 -166 903 -205 845 -205 ct p
845 -176 m  881 -176 902 -146 902 -97 ct 902 -50 880 -20 845 -20 ct 810 -20 788 -50 788 -98 ct 
788 -146 810 -176 845 -176 ct p ef
1051 -200 m  1018 -200 l  1018 -231 l  1018 -244 1025 -251 1040 -251 ct 1043 -251 1044 -251 1051 -251 ct 
1051 -277 l  1044 -279 1040 -279 1033 -279 ct 1004 -279 987 -262 987 -234 ct 
987 -200 l  960 -200 l  960 -174 l  987 -174 l  987 0 l  1018 0 l  1018 -174 l 
1051 -174 l  1051 -200 l  p ef
1261 -200 m  1228 -200 l  1228 -255 l  1196 -255 l  1196 -200 l  1169 -200 l 
1169 -174 l  1196 -174 l  1196 -23 l  1196 -2 1210 9 1235 9 ct 1243 9 1250 8 1261 6 ct 
1261 -20 l  1256 -19 1252 -19 1246 -19 ct 1232 -19 1228 -23 1228 -37 ct 1228 -174 l 
1261 -174 l  1261 -200 l  p ef
1297 -278 m  1297 0 l  1328 0 l  1328 -110 l  1328 -151 1350 -177 1382 -177 ct 
1393 -177 1403 -174 1411 -168 ct 1420 -162 1424 -152 1424 -138 ct 1424 0 l  1455 0 l 
1455 -151 l  1455 -184 1431 -205 1392 -205 ct 1364 -205 1347 -196 1328 -172 ct 
1328 -278 l  1297 -278 l  p ef
1677 -89 m  1677 -119 1675 -138 1669 -152 ct 1656 -185 1626 -205 1589 -205 ct 
1533 -205 1497 -163 1497 -97 ct 1497 -31 1532 9 1588 9 ct 1634 9 1665 -17 1673 -60 ct 
1641 -60 l  1632 -34 1615 -20 1589 -20 ct 1569 -20 1552 -29 1541 -46 ct 1533 -58 1531 -69 1530 -89 ct 
1677 -89 l  p
1531 -115 m  1534 -152 1556 -176 1588 -176 ct 1621 -176 1643 -151 1643 -115 ct 
1531 -115 l  p ef
1966 -144 m  1965 -183 1940 -205 1893 -205 ct 1847 -205 1817 -181 1817 -144 ct 
1817 -113 1833 -98 1880 -87 ct 1910 -79 l  1932 -74 1941 -66 1941 -52 ct 1941 -33 1922 -20 1894 -20 ct 
1877 -20 1863 -25 1855 -34 ct 1850 -39 1847 -45 1845 -59 ct 1812 -59 l  1813 -13 1839 9 1892 9 ct 
1942 9 1974 -16 1974 -54 ct 1974 -84 1957 -100 1917 -110 ct 1887 -117 l  1861 -123 1850 -132 1850 -146 ct 
1850 -164 1866 -176 1892 -176 ct 1918 -176 1932 -165 1932 -144 ct 1966 -144 l 
p ef
2138 -200 m  2083 -44 l  2032 -200 l  1998 -200 l  2065 1 l  2053 32 l 
2048 46 2041 52 2027 52 ct 2022 52 2017 51 2011 49 ct 2011 78 l  2017 81 2024 83 2032 83 ct 
2042 83 2053 80 2062 73 ct 2072 66 2077 58 2083 42 ct 2172 -200 l  2138 -200 l 
p ef
2347 -144 m  2346 -183 2321 -205 2274 -205 ct 2228 -205 2198 -181 2198 -144 ct 
2198 -113 2214 -98 2261 -87 ct 2291 -79 l  2313 -74 2322 -66 2322 -52 ct 2322 -33 2303 -20 2275 -20 ct 
2258 -20 2244 -25 2236 -34 ct 2231 -39 2228 -45 2226 -59 ct 2193 -59 l  2194 -13 2220 9 2273 9 ct 
2323 9 2355 -16 2355 -54 ct 2355 -84 2338 -100 2298 -110 ct 2268 -117 l  2242 -123 2231 -132 2231 -146 ct 
2231 -164 2247 -176 2273 -176 ct 2299 -176 2313 -165 2313 -144 ct 2347 -144 l 
p ef
2468 -200 m  2435 -200 l  2435 -255 l  2403 -255 l  2403 -200 l  2376 -200 l 
2376 -174 l  2403 -174 l  2403 -23 l  2403 -2 2417 9 2442 9 ct 2450 9 2457 8 2468 6 ct 
2468 -20 l  2463 -19 2459 -19 2453 -19 ct 2439 -19 2435 -23 2435 -37 ct 2435 -174 l 
2468 -174 l  2468 -200 l  p ef
2672 -89 m  2672 -119 2670 -138 2664 -152 ct 2651 -185 2621 -205 2584 -205 ct 
2528 -205 2492 -163 2492 -97 ct 2492 -31 2527 9 2583 9 ct 2629 9 2660 -17 2668 -60 ct 
2636 -60 l  2627 -34 2610 -20 2584 -20 ct 2564 -20 2547 -29 2536 -46 ct 2528 -58 2526 -69 2525 -89 ct 
2672 -89 l  p
2526 -115 m  2529 -152 2551 -176 2583 -176 ct 2616 -176 2638 -151 2638 -115 ct 
2526 -115 l  p ef
2715 -200 m  2715 0 l  2747 0 l  2747 -126 l  2747 -154 2768 -177 2794 -177 ct 
2817 -177 2830 -163 2830 -137 ct 2830 0 l  2862 0 l  2862 -125 l  2862 -154 2883 -177 2909 -177 ct 
2933 -177 2946 -162 2946 -137 ct 2946 0 l  2978 0 l  2978 -149 l  2978 -185 2958 -205 2920 -205 ct 
2894 -205 2878 -197 2859 -175 ct 2847 -196 2831 -205 2805 -205 ct 2779 -206 2761 -196 2744 -172 ct 
2744 -200 l  2715 -200 l  p ef
pom
pum
8882 4186 t
310 0 m  396 -293 l  343 -293 l  285 -65 l  228 -293 l  170 -293 l  115 -65 l 
55 -293 l  3 -293 l  88 0 l  141 0 l  197 -230 l  257 0 l  310 0 l  p ef
486 -293 m  439 -293 l  439 0 l  486 0 l  486 -293 l  p
486 -408 m  439 -408 l  439 -349 l  486 -349 l  486 -408 l  p ef
667 -293 m  619 -293 l  619 -373 l  573 -373 l  573 -293 l  533 -293 l 
533 -255 l  573 -255 l  573 -33 l  573 -3 593 13 629 13 ct 641 13 651 12 667 9 ct 
667 -30 l  660 -28 654 -28 645 -28 ct 625 -28 619 -33 619 -54 ct 619 -255 l 
667 -255 l  667 -293 l  p ef
721 -408 m  721 0 l  768 0 l  768 -161 l  768 -221 799 -260 847 -260 ct 863 -260 877 -256 888 -247 ct 
902 -237 907 -223 907 -203 ct 907 0 l  954 0 l  954 -221 l  954 -270 918 -301 861 -301 ct 
820 -301 795 -288 768 -252 ct 768 -408 l  721 -408 l  p ef
1424 -408 m  1377 -408 l  1377 -256 l  1358 -285 1326 -301 1287 -301 ct 1211 -301 1162 -240 1162 -147 ct 
1162 -48 1210 13 1289 13 ct 1329 13 1357 -2 1382 -38 ct 1382 0 l  1424 0 l  1424 -408 l 
p
1295 -257 m  1345 -257 1377 -213 1377 -143 ct 1377 -75 1345 -31 1296 -31 ct 
1244 -31 1210 -76 1210 -144 ct 1210 -212 1244 -257 1295 -257 ct p ef
1540 -293 m  1493 -293 l  1493 0 l  1540 0 l  1540 -293 l  p
1540 -408 m  1493 -408 l  1493 -349 l  1540 -349 l  1540 -408 l  p ef
1618 -293 m  1618 0 l  1665 0 l  1665 -152 l  1665 -223 1694 -254 1758 -252 ct 
1758 -300 l  1751 -300 1746 -301 1741 -301 ct 1710 -301 1687 -283 1661 -240 ct 
1661 -293 l  1618 -293 l  p ef
2052 -131 m  2052 -176 2048 -202 2040 -224 ct 2021 -272 1976 -301 1922 -301 ct 
1840 -301 1787 -239 1787 -143 ct 1787 -46 1838 13 1920 13 ct 1987 13 2034 -25 2046 -89 ct 
1999 -89 l  1986 -50 1960 -30 1922 -30 ct 1892 -30 1867 -44 1852 -68 ct 1840 -85 1837 -102 1836 -131 ct 
2052 -131 l  p
1837 -169 m  1841 -223 1874 -258 1921 -258 ct 1968 -258 2001 -221 2001 -169 ct 
1837 -169 l  p ef
2337 -194 m  2335 -223 2329 -241 2318 -257 ct 2298 -285 2262 -301 2222 -301 ct 
2142 -301 2091 -238 2091 -141 ct 2091 -47 2142 13 2221 13 ct 2291 13 2335 -29 2341 -100 ct 
2294 -100 l  2286 -54 2262 -30 2222 -30 ct 2171 -30 2140 -72 2140 -141 ct 2140 -214 2170 -258 2221 -258 ct 
2260 -258 2285 -235 2290 -194 ct 2337 -194 l  p ef
2496 -293 m  2448 -293 l  2448 -373 l  2402 -373 l  2402 -293 l  2362 -293 l 
2362 -255 l  2402 -255 l  2402 -33 l  2402 -3 2422 13 2458 13 ct 2470 13 2480 12 2496 9 ct 
2496 -30 l  2489 -28 2483 -28 2474 -28 ct 2454 -28 2448 -33 2448 -54 ct 2448 -255 l 
2496 -255 l  2496 -293 l  p ef
pom
gs
75.99252 lw 582.20133 ml 10164 5087 m  10164 6862 l  ps
gr
gs
10165 7034 m  10049 6804 l  10165 6862 l  10279 6804 l  10165 7034 l  p ef
gr
gs
75.99252 lw 582.20133 ml 10165 7034 m  10049 6804 l  10165 6862 l  10279 6804 l 
10165 7034 l  pc
gr
gs
75.99252 lw 582.20133 ml 8133 9148 m  9983 7298 l  ps
gr
gs
10105 7178 m  10023 7421 l  9982 7299 l  9861 7259 l  10105 7178 l  p ef
gr
gs
75.99252 lw 582.20133 ml 10105 7177 m  10023 7420 l  9982 7298 l  9861 7258 l 
10105 7177 l  pc
gr
gs
1.000 1.000 1.000 c 5076 6344 m  9137 6344 l  9137 7868 l  5076 7868 l 
5076 6344 l  p ef
gr
gs
49.99508 lw 383.02719 ml 5075 6344 m  9137 6344 l  9137 7867 l  5075 7867 l 
5075 6344 l  pc
gr
pum
8882 4846 t
30 -408 m  30 0 l  72 0 l  72 -37 l  94 -3 124 13 165 13 ct 242 13 292 -50 292 -147 ct 
292 -242 245 -301 167 -301 ct 127 -301 98 -286 77 -253 ct 77 -408 l  30 -408 l 
p
158 -257 m  210 -257 244 -212 244 -142 ct 244 -76 209 -31 158 -31 ct 108 -31 77 -75 77 -144 ct 
77 -213 108 -257 158 -257 ct p ef
394 -408 m  347 -408 l  347 0 l  394 0 l  394 -408 l  p ef
584 -301 m  501 -301 452 -242 452 -144 ct 452 -45 501 13 585 13 ct 667 13 717 -46 717 -142 ct 
717 -243 669 -301 584 -301 ct p
585 -258 m  637 -258 668 -215 668 -142 ct 668 -73 636 -30 585 -30 ct 533 -30 501 -73 501 -144 ct 
501 -215 533 -258 585 -258 ct p ef
893 -301 m  810 -301 761 -242 761 -144 ct 761 -45 810 13 894 13 ct 976 13 1026 -46 1026 -142 ct 
1026 -243 978 -301 893 -301 ct p
894 -258 m  946 -258 977 -215 977 -142 ct 977 -73 945 -30 894 -30 ct 842 -30 810 -73 810 -144 ct 
810 -215 842 -258 894 -258 ct p ef
1327 -408 m  1280 -408 l  1280 -256 l  1261 -285 1229 -301 1190 -301 ct 1114 -301 1065 -240 1065 -147 ct 
1065 -48 1113 13 1192 13 ct 1232 13 1260 -2 1285 -38 ct 1285 0 l  1327 0 l  1327 -408 l 
p
1198 -257 m  1248 -257 1280 -213 1280 -143 ct 1280 -75 1248 -31 1199 -31 ct 
1147 -31 1113 -76 1113 -144 ct 1113 -212 1147 -257 1198 -257 ct p ef
1660 -293 m  1611 -293 l  1611 -339 l  1611 -358 1622 -368 1643 -368 ct 1647 -368 1649 -368 1660 -368 ct 
1660 -406 l  1649 -408 1643 -409 1633 -409 ct 1590 -409 1565 -384 1565 -343 ct 
1565 -293 l  1526 -293 l  1526 -255 l  1565 -255 l  1565 0 l  1611 0 l 
1611 -255 l  1660 -255 l  1660 -293 l  p
1756 -408 m  1710 -408 l  1710 0 l  1756 0 l  1756 -408 l  p ef
1947 -301 m  1864 -301 1815 -242 1815 -144 ct 1815 -45 1864 13 1948 13 ct 2030 13 2080 -46 2080 -142 ct 
2080 -243 2032 -301 1947 -301 ct p
1948 -258 m  2000 -258 2031 -215 2031 -142 ct 2031 -73 1999 -30 1948 -30 ct 
1896 -30 1864 -73 1864 -144 ct 1864 -215 1896 -258 1948 -258 ct p ef
2414 0 m  2500 -293 l  2447 -293 l  2389 -65 l  2332 -293 l  2274 -293 l 
2219 -65 l  2159 -293 l  2107 -293 l  2192 0 l  2245 0 l  2301 -230 l 
2361 0 l  2414 0 l  p ef
pom
pum
5200 6774 t
238 -144 m  238 0 l  278 0 l  278 -315 l  238 -315 l  238 -179 l  76 -179 l 
76 -315 l  36 -315 l  36 0 l  76 0 l  76 -144 l  238 -144 l  p ef
535 -101 m  535 -136 532 -156 526 -173 ct 511 -211 476 -233 434 -233 ct 371 -233 330 -185 330 -110 ct 
330 -35 369 10 433 10 ct 485 10 521 -19 530 -69 ct 494 -69 l  484 -39 463 -23 434 -23 ct 
411 -23 392 -34 380 -53 ct 371 -66 368 -79 368 -101 ct 535 -101 l  p
369 -130 m  372 -172 397 -200 434 -200 ct 470 -200 496 -171 496 -130 ct 369 -130 l 
p ef
585 -226 m  585 0 l  622 0 l  622 -142 l  622 -175 645 -201 675 -201 ct 701 -201 717 -185 717 -156 ct 
717 0 l  753 0 l  753 -142 l  753 -175 777 -201 806 -201 ct 832 -201 848 -185 848 -156 ct 
848 0 l  884 0 l  884 -170 l  884 -211 861 -233 819 -233 ct 788 -233 770 -224 749 -198 ct 
736 -223 717 -233 688 -233 ct 658 -232 638 -221 619 -194 ct 619 -226 l  585 -226 l 
p ef
1032 -233 m  968 -233 930 -188 930 -111 ct 930 -35 968 10 1032 10 ct 1096 10 1134 -35 1134 -110 ct 
1134 -188 1097 -233 1032 -233 ct p
1032 -200 m  1073 -200 1097 -166 1097 -110 ct 1097 -57 1072 -23 1032 -23 ct 
992 -23 967 -57 967 -111 ct 967 -166 992 -200 1032 -200 ct p ef
1370 -315 m  1334 -315 l  1334 -198 l  1319 -221 1295 -233 1264 -233 ct 1206 -233 1167 -186 1167 -114 ct 
1167 -37 1204 10 1266 10 ct 1297 10 1318 -2 1338 -30 ct 1338 0 l  1370 0 l  1370 -315 l 
p
1270 -199 m  1309 -199 1334 -165 1334 -111 ct 1334 -58 1309 -24 1271 -24 ct 
1231 -24 1205 -59 1205 -111 ct 1205 -164 1231 -199 1270 -199 ct p ef
1565 -226 m  1502 -50 l  1444 -226 l  1406 -226 l  1482 1 l  1468 37 l 
1462 53 1454 59 1439 59 ct 1433 59 1428 58 1420 56 ct 1420 88 l  1428 92 1435 94 1445 94 ct 
1456 94 1469 90 1478 83 ct 1489 75 1496 66 1503 47 ct 1603 -226 l  1565 -226 l 
p ef
1643 -226 m  1643 0 l  1680 0 l  1680 -125 l  1680 -171 1704 -201 1741 -201 ct 
1769 -201 1788 -184 1788 -157 ct 1788 0 l  1823 0 l  1823 -171 l  1823 -209 1795 -233 1752 -233 ct 
1718 -232 1696 -220 1677 -188 ct 1677 -226 l  1643 -226 l  p ef
2085 -21 m  2081 -20 2080 -20 2077 -20 ct 2065 -20 2058 -27 2058 -38 ct 2058 -171 l 
2058 -211 2029 -233 1973 -233 ct 1940 -233 1913 -223 1898 -207 ct 1887 -195 1883 -182 1882 -160 ct 
1918 -160 l  1921 -187 1938 -200 1972 -200 ct 2004 -200 2022 -188 2022 -166 ct 
2022 -156 l  2022 -141 2014 -135 1984 -131 ct 1933 -125 1926 -123 1912 -118 ct 
1886 -106 1872 -86 1872 -57 ct 1872 -16 1901 10 1946 10 ct 1975 10 1998 0 2023 -23 ct 
2026 0 2037 10 2060 10 ct 2068 10 2073 9 2085 6 ct 2085 -21 l  p
2022 -71 m  2022 -59 2019 -52 2008 -42 ct 1993 -28 1975 -22 1954 -22 ct 1926 -22 1910 -35 1910 -58 ct 
1910 -82 1925 -94 1964 -99 ct 2003 -105 2010 -106 2022 -112 ct 2022 -71 l  p ef
2126 -226 m  2126 0 l  2163 0 l  2163 -142 l  2163 -175 2186 -201 2216 -201 ct 
2242 -201 2258 -185 2258 -156 ct 2258 0 l  2294 0 l  2294 -142 l  2294 -175 2318 -201 2347 -201 ct 
2373 -201 2389 -185 2389 -156 ct 2389 0 l  2425 0 l  2425 -170 l  2425 -211 2402 -233 2360 -233 ct 
2329 -233 2311 -224 2290 -198 ct 2277 -223 2258 -233 2229 -233 ct 2199 -232 2179 -221 2160 -194 ct 
2160 -226 l  2126 -226 l  p ef
2520 -226 m  2484 -226 l  2484 0 l  2520 0 l  2520 -226 l  p
2520 -315 m  2484 -315 l  2484 -270 l  2520 -270 l  2520 -315 l  p ef
2756 -150 m  2755 -172 2750 -187 2741 -199 ct 2726 -220 2699 -233 2667 -233 ct 
2606 -233 2566 -185 2566 -109 ct 2566 -36 2605 10 2667 10 ct 2721 10 2755 -22 2759 -78 ct 
2723 -78 l  2717 -41 2698 -23 2667 -23 ct 2628 -23 2604 -56 2604 -109 ct 2604 -166 2627 -200 2667 -200 ct 
2697 -200 2716 -182 2720 -150 ct 2756 -150 l  p ef
2958 -163 m  2958 -208 2928 -233 2876 -233 ct 2823 -233 2789 -206 2789 -164 ct 
2789 -128 2807 -111 2861 -99 ct 2895 -90 l  2920 -84 2930 -75 2930 -59 ct 2930 -38 2909 -23 2877 -23 ct 
2858 -23 2841 -29 2832 -38 ct 2826 -45 2824 -51 2822 -67 ct 2784 -67 l  2785 -15 2815 10 2874 10 ct 
2931 10 2967 -18 2967 -62 ct 2967 -95 2948 -114 2903 -125 ct 2869 -133 l  2839 -140 2827 -150 2827 -166 ct 
2827 -187 2845 -200 2875 -200 ct 2904 -200 2919 -187 2920 -163 ct 2958 -163 l 
p ef
3077 -45 m  3033 -45 l  3033 0 l  3077 0 l  3077 -45 l  p
3077 -226 m  3033 -226 l  3033 -181 l  3077 -181 l  3077 -226 l  p ef
3334 -222 m  3334 0 l  3372 0 l  3372 -312 l  3347 -312 l  3333 -264 3325 -258 3266 -250 ct 
3266 -222 l  3334 -222 l  p ef
3652 -163 m  3652 -208 3622 -233 3570 -233 ct 3517 -233 3483 -206 3483 -164 ct 
3483 -128 3501 -111 3555 -99 ct 3589 -90 l  3614 -84 3624 -75 3624 -59 ct 3624 -38 3603 -23 3571 -23 ct 
3552 -23 3535 -29 3526 -38 ct 3520 -45 3518 -51 3516 -67 ct 3478 -67 l  3479 -15 3509 10 3568 10 ct 
3625 10 3661 -18 3661 -62 ct 3661 -95 3642 -114 3597 -125 ct 3563 -133 l  3533 -140 3521 -150 3521 -166 ct 
3521 -187 3539 -200 3569 -200 ct 3598 -200 3613 -187 3614 -163 ct 3652 -163 l 
p ef
3789 -226 m  3752 -226 l  3752 -288 l  3716 -288 l  3716 -226 l  3685 -226 l 
3685 -197 l  3716 -197 l  3716 -26 l  3716 -3 3731 10 3759 10 ct 3769 10 3777 9 3789 7 ct 
3789 -23 l  3784 -22 3779 -22 3771 -22 ct 3756 -22 3752 -26 3752 -42 ct 3752 -197 l 
3789 -197 l  3789 -226 l  p ef
pom
pum
5667 7282 t
189 -163 m  189 -208 159 -233 107 -233 ct 54 -233 20 -206 20 -164 ct 20 -128 38 -111 92 -99 ct 
126 -90 l  151 -84 161 -75 161 -59 ct 161 -38 140 -23 108 -23 ct 89 -23 72 -29 63 -38 ct 
57 -45 55 -51 53 -67 ct 15 -67 l  16 -15 46 10 105 10 ct 162 10 198 -18 198 -62 ct 
198 -95 179 -114 134 -125 ct 100 -133 l  70 -140 58 -150 58 -166 ct 58 -187 76 -200 106 -200 ct 
135 -200 150 -187 151 -163 ct 189 -163 l  p ef
438 -101 m  438 -136 435 -156 429 -173 ct 414 -211 379 -233 337 -233 ct 274 -233 233 -185 233 -110 ct 
233 -35 272 10 336 10 ct 388 10 424 -19 433 -69 ct 397 -69 l  387 -39 366 -23 337 -23 ct 
314 -23 295 -34 283 -53 ct 274 -66 271 -79 271 -101 ct 438 -101 l  p
272 -130 m  275 -172 300 -200 337 -200 ct 373 -200 399 -171 399 -130 ct 272 -130 l 
p ef
632 -226 m  632 -193 l  613 -221 594 -233 565 -233 ct 510 -233 472 -182 472 -109 ct 
472 -71 481 -44 501 -21 ct 517 -1 539 10 562 10 ct 590 10 609 -2 628 -31 ct 628 -19 l 
628 42 611 64 566 64 ct 536 64 520 52 516 26 ct 479 26 l  483 68 516 94 565 94 ct 
599 94 626 83 641 65 ct 658 44 665 16 665 -37 ct 665 -226 l  632 -226 l  p
568 -200 m  606 -200 628 -168 628 -110 ct 628 -55 606 -23 568 -23 ct 531 -23 510 -56 510 -111 ct 
510 -167 531 -200 568 -200 ct p ef
729 -226 m  729 0 l  766 0 l  766 -142 l  766 -175 789 -201 819 -201 ct 845 -201 861 -185 861 -156 ct 
861 0 l  897 0 l  897 -142 l  897 -175 921 -201 950 -201 ct 976 -201 992 -185 992 -156 ct 
992 0 l  1028 0 l  1028 -170 l  1028 -211 1005 -233 963 -233 ct 932 -233 914 -224 893 -198 ct 
880 -223 861 -233 832 -233 ct 802 -232 782 -221 763 -194 ct 763 -226 l  729 -226 l 
p ef
1280 -101 m  1280 -136 1277 -156 1271 -173 ct 1256 -211 1221 -233 1179 -233 ct 
1116 -233 1075 -185 1075 -110 ct 1075 -35 1114 10 1178 10 ct 1230 10 1266 -19 1275 -69 ct 
1239 -69 l  1229 -39 1208 -23 1179 -23 ct 1156 -23 1137 -34 1125 -53 ct 1116 -66 1113 -79 1113 -101 ct 
1280 -101 l  p
1114 -130 m  1117 -172 1142 -200 1179 -200 ct 1215 -200 1241 -171 1241 -130 ct 
1114 -130 l  p ef
1330 -226 m  1330 0 l  1367 0 l  1367 -125 l  1367 -171 1391 -201 1428 -201 ct 
1456 -201 1475 -184 1475 -157 ct 1475 0 l  1510 0 l  1510 -171 l  1510 -209 1482 -233 1439 -233 ct 
1405 -232 1383 -220 1364 -188 ct 1364 -226 l  1330 -226 l  p ef
1651 -226 m  1614 -226 l  1614 -288 l  1578 -288 l  1578 -226 l  1547 -226 l 
1547 -197 l  1578 -197 l  1578 -26 l  1578 -3 1593 10 1621 10 ct 1631 10 1639 9 1651 7 ct 
1651 -23 l  1646 -22 1641 -22 1633 -22 ct 1618 -22 1614 -26 1614 -42 ct 1614 -197 l 
1651 -197 l  1651 -226 l  p ef
1896 -233 m  1832 -233 1794 -188 1794 -111 ct 1794 -35 1832 10 1896 10 ct 1960 10 1998 -35 1998 -110 ct 
1998 -188 1961 -233 1896 -233 ct p
1896 -200 m  1937 -200 1961 -166 1961 -110 ct 1961 -57 1936 -23 1896 -23 ct 
1856 -23 1831 -57 1831 -111 ct 1831 -166 1856 -200 1896 -200 ct p ef
2130 -226 m  2093 -226 l  2093 -262 l  2093 -277 2101 -284 2118 -284 ct 2121 -284 2122 -284 2130 -284 ct 
2130 -314 l  2122 -316 2117 -316 2110 -316 ct 2077 -316 2057 -297 2057 -265 ct 
2057 -226 l  2027 -226 l  2027 -197 l  2057 -197 l  2057 0 l  2093 0 l 
2093 -197 l  2130 -197 l  2130 -226 l  p ef
2366 -226 m  2329 -226 l  2329 -288 l  2293 -288 l  2293 -226 l  2262 -226 l 
2262 -197 l  2293 -197 l  2293 -26 l  2293 -3 2308 10 2336 10 ct 2346 10 2354 9 2366 7 ct 
2366 -23 l  2361 -22 2356 -22 2348 -22 ct 2333 -22 2329 -26 2329 -42 ct 2329 -197 l 
2366 -197 l  2366 -226 l  p ef
2405 -315 m  2405 0 l  2441 0 l  2441 -125 l  2441 -171 2465 -201 2502 -201 ct 
2515 -201 2526 -198 2534 -192 ct 2545 -184 2549 -173 2549 -157 ct 2549 0 l  2585 0 l 
2585 -171 l  2585 -209 2558 -233 2514 -233 ct 2482 -233 2462 -223 2441 -195 ct 
2441 -315 l  2405 -315 l  p ef
2838 -101 m  2838 -136 2835 -156 2829 -173 ct 2814 -211 2779 -233 2737 -233 ct 
2674 -233 2633 -185 2633 -110 ct 2633 -35 2672 10 2736 10 ct 2788 10 2824 -19 2833 -69 ct 
2797 -69 l  2787 -39 2766 -23 2737 -23 ct 2714 -23 2695 -34 2683 -53 ct 2674 -66 2671 -79 2671 -101 ct 
2838 -101 l  p
2672 -130 m  2675 -172 2700 -200 2737 -200 ct 2773 -200 2799 -171 2799 -130 ct 
2672 -130 l  p ef
pom
gs
1.000 1.000 1.000 c 10659 6344 m  14721 6344 l  14721 7868 l  10659 7868 l 
10659 6344 l  p ef
gr
gs
49.99508 lw 383.02719 ml 10659 6344 m  14721 6344 l  14721 7867 l  10659 7867 l 
10659 6344 l  pc
gr
pum
6602 7789 t
231 -21 m  227 -20 226 -20 223 -20 ct 211 -20 204 -27 204 -38 ct 204 -171 l 
204 -211 175 -233 119 -233 ct 86 -233 59 -223 44 -207 ct 33 -195 29 -182 28 -160 ct 
64 -160 l  67 -187 84 -200 118 -200 ct 150 -200 168 -188 168 -166 ct 168 -156 l 
168 -141 160 -135 130 -131 ct 79 -125 72 -123 58 -118 ct 32 -106 18 -86 18 -57 ct 
18 -16 47 10 92 10 ct 121 10 144 0 169 -23 ct 172 0 183 10 206 10 ct 214 10 219 9 231 6 ct 
231 -21 l  p
168 -71 m  168 -59 165 -52 154 -42 ct 139 -28 121 -22 100 -22 ct 72 -22 56 -35 56 -58 ct 
56 -82 71 -94 110 -99 ct 149 -105 156 -106 168 -112 ct 168 -71 l  p ef
359 -233 m  295 -233 257 -188 257 -111 ct 257 -35 295 10 359 10 ct 423 10 461 -35 461 -110 ct 
461 -188 424 -233 359 -233 ct p
359 -200 m  400 -200 424 -166 424 -110 ct 424 -57 399 -23 359 -23 ct 319 -23 294 -57 294 -111 ct 
294 -166 319 -200 359 -200 ct p ef
513 -226 m  513 0 l  549 0 l  549 -117 l  550 -172 572 -196 622 -195 ct 622 -231 l 
616 -233 612 -233 608 -233 ct 585 -233 567 -219 546 -185 ct 546 -226 l  513 -226 l 
p ef
737 -226 m  700 -226 l  700 -288 l  664 -288 l  664 -226 l  633 -226 l 
633 -197 l  664 -197 l  664 -26 l  664 -3 679 10 707 10 ct 717 10 725 9 737 7 ct 
737 -23 l  732 -22 727 -22 719 -22 ct 704 -22 700 -26 700 -42 ct 700 -197 l 
737 -197 l  737 -226 l  p ef
976 -21 m  972 -20 971 -20 968 -20 ct 956 -20 949 -27 949 -38 ct 949 -171 l 
949 -211 920 -233 864 -233 ct 831 -233 804 -223 789 -207 ct 778 -195 774 -182 773 -160 ct 
809 -160 l  812 -187 829 -200 863 -200 ct 895 -200 913 -188 913 -166 ct 913 -156 l 
913 -141 905 -135 875 -131 ct 824 -125 817 -123 803 -118 ct 777 -106 763 -86 763 -57 ct 
763 -16 792 10 837 10 ct 866 10 889 0 914 -23 ct 917 0 928 10 951 10 ct 959 10 964 9 976 6 ct 
976 -21 l  p
913 -71 m  913 -59 910 -52 899 -42 ct 884 -28 866 -22 845 -22 ct 817 -22 801 -35 801 -58 ct 
801 -82 816 -94 855 -99 ct 894 -105 901 -106 913 -112 ct 913 -71 l  p ef
pom
pum
10710 6774 t
238 -144 m  238 0 l  278 0 l  278 -315 l  238 -315 l  238 -179 l  76 -179 l 
76 -315 l  36 -315 l  36 0 l  76 0 l  76 -144 l  238 -144 l  p ef
535 -101 m  535 -136 532 -156 526 -173 ct 511 -211 476 -233 434 -233 ct 371 -233 330 -185 330 -110 ct 
330 -35 369 10 433 10 ct 485 10 521 -19 530 -69 ct 494 -69 l  484 -39 463 -23 434 -23 ct 
411 -23 392 -34 380 -53 ct 371 -66 368 -79 368 -101 ct 535 -101 l  p
369 -130 m  372 -172 397 -200 434 -200 ct 470 -200 496 -171 496 -130 ct 369 -130 l 
p ef
585 -226 m  585 0 l  622 0 l  622 -142 l  622 -175 645 -201 675 -201 ct 701 -201 717 -185 717 -156 ct 
717 0 l  753 0 l  753 -142 l  753 -175 777 -201 806 -201 ct 832 -201 848 -185 848 -156 ct 
848 0 l  884 0 l  884 -170 l  884 -211 861 -233 819 -233 ct 788 -233 770 -224 749 -198 ct 
736 -223 717 -233 688 -233 ct 658 -232 638 -221 619 -194 ct 619 -226 l  585 -226 l 
p ef
1032 -233 m  968 -233 930 -188 930 -111 ct 930 -35 968 10 1032 10 ct 1096 10 1134 -35 1134 -110 ct 
1134 -188 1097 -233 1032 -233 ct p
1032 -200 m  1073 -200 1097 -166 1097 -110 ct 1097 -57 1072 -23 1032 -23 ct 
992 -23 967 -57 967 -111 ct 967 -166 992 -200 1032 -200 ct p ef
1370 -315 m  1334 -315 l  1334 -198 l  1319 -221 1295 -233 1264 -233 ct 1206 -233 1167 -186 1167 -114 ct 
1167 -37 1204 10 1266 10 ct 1297 10 1318 -2 1338 -30 ct 1338 0 l  1370 0 l  1370 -315 l 
p
1270 -199 m  1309 -199 1334 -165 1334 -111 ct 1334 -58 1309 -24 1271 -24 ct 
1231 -24 1205 -59 1205 -111 ct 1205 -164 1231 -199 1270 -199 ct p ef
1565 -226 m  1502 -50 l  1444 -226 l  1406 -226 l  1482 1 l  1468 37 l 
1462 53 1454 59 1439 59 ct 1433 59 1428 58 1420 56 ct 1420 88 l  1428 92 1435 94 1445 94 ct 
1456 94 1469 90 1478 83 ct 1489 75 1496 66 1503 47 ct 1603 -226 l  1565 -226 l 
p ef
1643 -226 m  1643 0 l  1680 0 l  1680 -125 l  1680 -171 1704 -201 1741 -201 ct 
1769 -201 1788 -184 1788 -157 ct 1788 0 l  1823 0 l  1823 -171 l  1823 -209 1795 -233 1752 -233 ct 
1718 -232 1696 -220 1677 -188 ct 1677 -226 l  1643 -226 l  p ef
2085 -21 m  2081 -20 2080 -20 2077 -20 ct 2065 -20 2058 -27 2058 -38 ct 2058 -171 l 
2058 -211 2029 -233 1973 -233 ct 1940 -233 1913 -223 1898 -207 ct 1887 -195 1883 -182 1882 -160 ct 
1918 -160 l  1921 -187 1938 -200 1972 -200 ct 2004 -200 2022 -188 2022 -166 ct 
2022 -156 l  2022 -141 2014 -135 1984 -131 ct 1933 -125 1926 -123 1912 -118 ct 
1886 -106 1872 -86 1872 -57 ct 1872 -16 1901 10 1946 10 ct 1975 10 1998 0 2023 -23 ct 
2026 0 2037 10 2060 10 ct 2068 10 2073 9 2085 6 ct 2085 -21 l  p
2022 -71 m  2022 -59 2019 -52 2008 -42 ct 1993 -28 1975 -22 1954 -22 ct 1926 -22 1910 -35 1910 -58 ct 
1910 -82 1925 -94 1964 -99 ct 2003 -105 2010 -106 2022 -112 ct 2022 -71 l  p ef
2126 -226 m  2126 0 l  2163 0 l  2163 -142 l  2163 -175 2186 -201 2216 -201 ct 
2242 -201 2258 -185 2258 -156 ct 2258 0 l  2294 0 l  2294 -142 l  2294 -175 2318 -201 2347 -201 ct 
2373 -201 2389 -185 2389 -156 ct 2389 0 l  2425 0 l  2425 -170 l  2425 -211 2402 -233 2360 -233 ct 
2329 -233 2311 -224 2290 -198 ct 2277 -223 2258 -233 2229 -233 ct 2199 -232 2179 -221 2160 -194 ct 
2160 -226 l  2126 -226 l  p ef
2520 -226 m  2484 -226 l  2484 0 l  2520 0 l  2520 -226 l  p
2520 -315 m  2484 -315 l  2484 -270 l  2520 -270 l  2520 -315 l  p ef
2756 -150 m  2755 -172 2750 -187 2741 -199 ct 2726 -220 2699 -233 2667 -233 ct 
2606 -233 2566 -185 2566 -109 ct 2566 -36 2605 10 2667 10 ct 2721 10 2755 -22 2759 -78 ct 
2723 -78 l  2717 -41 2698 -23 2667 -23 ct 2628 -23 2604 -56 2604 -109 ct 2604 -166 2627 -200 2667 -200 ct 
2697 -200 2716 -182 2720 -150 ct 2756 -150 l  p ef
2958 -163 m  2958 -208 2928 -233 2876 -233 ct 2823 -233 2789 -206 2789 -164 ct 
2789 -128 2807 -111 2861 -99 ct 2895 -90 l  2920 -84 2930 -75 2930 -59 ct 2930 -38 2909 -23 2877 -23 ct 
2858 -23 2841 -29 2832 -38 ct 2826 -45 2824 -51 2822 -67 ct 2784 -67 l  2785 -15 2815 10 2874 10 ct 
2931 10 2967 -18 2967 -62 ct 2967 -95 2948 -114 2903 -125 ct 2869 -133 l  2839 -140 2827 -150 2827 -166 ct 
2827 -187 2845 -200 2875 -200 ct 2904 -200 2919 -187 2920 -163 ct 2958 -163 l 
p ef
3077 -45 m  3033 -45 l  3033 0 l  3077 0 l  3077 -45 l  p
3077 -226 m  3033 -226 l  3033 -181 l  3077 -181 l  3077 -226 l  p ef
3441 -37 m  3279 -37 l  3283 -63 3297 -80 3335 -102 ct 3378 -127 l  3421 -150 3443 -182 3443 -221 ct 
3443 -247 3432 -271 3414 -288 ct 3396 -304 3374 -312 3345 -312 ct 3306 -312 3277 -298 3260 -271 ct 
3249 -255 3244 -236 3244 -204 ct 3282 -204 l  3283 -225 3286 -238 3291 -248 ct 
3301 -267 3320 -279 3343 -279 ct 3378 -279 3404 -254 3404 -220 ct 3404 -195 3390 -173 3362 -158 ct 
3323 -134 l  3259 -98 3240 -68 3237 0 ct 3441 0 l  3441 -37 l  p ef
3493 -226 m  3493 0 l  3530 0 l  3530 -125 l  3530 -171 3554 -201 3591 -201 ct 
3619 -201 3638 -184 3638 -157 ct 3638 0 l  3673 0 l  3673 -171 l  3673 -209 3645 -233 3602 -233 ct 
3568 -232 3546 -220 3527 -188 ct 3527 -226 l  3493 -226 l  p ef
3918 -315 m  3882 -315 l  3882 -198 l  3867 -221 3843 -233 3812 -233 ct 3754 -233 3715 -186 3715 -114 ct 
3715 -37 3752 10 3814 10 ct 3845 10 3866 -2 3886 -30 ct 3886 0 l  3918 0 l  3918 -315 l 
p
3818 -199 m  3857 -199 3882 -165 3882 -111 ct 3882 -58 3857 -24 3819 -24 ct 
3779 -24 3753 -59 3753 -111 ct 3753 -164 3779 -199 3818 -199 ct p ef
pom
pum
11250 7282 t
189 -163 m  189 -208 159 -233 107 -233 ct 54 -233 20 -206 20 -164 ct 20 -128 38 -111 92 -99 ct 
126 -90 l  151 -84 161 -75 161 -59 ct 161 -38 140 -23 108 -23 ct 89 -23 72 -29 63 -38 ct 
57 -45 55 -51 53 -67 ct 15 -67 l  16 -15 46 10 105 10 ct 162 10 198 -18 198 -62 ct 
198 -95 179 -114 134 -125 ct 100 -133 l  70 -140 58 -150 58 -166 ct 58 -187 76 -200 106 -200 ct 
135 -200 150 -187 151 -163 ct 189 -163 l  p ef
438 -101 m  438 -136 435 -156 429 -173 ct 414 -211 379 -233 337 -233 ct 274 -233 233 -185 233 -110 ct 
233 -35 272 10 336 10 ct 388 10 424 -19 433 -69 ct 397 -69 l  387 -39 366 -23 337 -23 ct 
314 -23 295 -34 283 -53 ct 274 -66 271 -79 271 -101 ct 438 -101 l  p
272 -130 m  275 -172 300 -200 337 -200 ct 373 -200 399 -171 399 -130 ct 272 -130 l 
p ef
632 -226 m  632 -193 l  613 -221 594 -233 565 -233 ct 510 -233 472 -182 472 -109 ct 
472 -71 481 -44 501 -21 ct 517 -1 539 10 562 10 ct 590 10 609 -2 628 -31 ct 628 -19 l 
628 42 611 64 566 64 ct 536 64 520 52 516 26 ct 479 26 l  483 68 516 94 565 94 ct 
599 94 626 83 641 65 ct 658 44 665 16 665 -37 ct 665 -226 l  632 -226 l  p
568 -200 m  606 -200 628 -168 628 -110 ct 628 -55 606 -23 568 -23 ct 531 -23 510 -56 510 -111 ct 
510 -167 531 -200 568 -200 ct p ef
729 -226 m  729 0 l  766 0 l  766 -142 l  766 -175 789 -201 819 -201 ct 845 -201 861 -185 861 -156 ct 
861 0 l  897 0 l  897 -142 l  897 -175 921 -201 950 -201 ct 976 -201 992 -185 992 -156 ct 
992 0 l  1028 0 l  1028 -170 l  1028 -211 1005 -233 963 -233 ct 932 -233 914 -224 893 -198 ct 
880 -223 861 -233 832 -233 ct 802 -232 782 -221 763 -194 ct 763 -226 l  729 -226 l 
p ef
1280 -101 m  1280 -136 1277 -156 1271 -173 ct 1256 -211 1221 -233 1179 -233 ct 
1116 -233 1075 -185 1075 -110 ct 1075 -35 1114 10 1178 10 ct 1230 10 1266 -19 1275 -69 ct 
1239 -69 l  1229 -39 1208 -23 1179 -23 ct 1156 -23 1137 -34 1125 -53 ct 1116 -66 1113 -79 1113 -101 ct 
1280 -101 l  p
1114 -130 m  1117 -172 1142 -200 1179 -200 ct 1215 -200 1241 -171 1241 -130 ct 
1114 -130 l  p ef
1330 -226 m  1330 0 l  1367 0 l  1367 -125 l  1367 -171 1391 -201 1428 -201 ct 
1456 -201 1475 -184 1475 -157 ct 1475 0 l  1510 0 l  1510 -171 l  1510 -209 1482 -233 1439 -233 ct 
1405 -232 1383 -220 1364 -188 ct 1364 -226 l  1330 -226 l  p ef
1651 -226 m  1614 -226 l  1614 -288 l  1578 -288 l  1578 -226 l  1547 -226 l 
1547 -197 l  1578 -197 l  1578 -26 l  1578 -3 1593 10 1621 10 ct 1631 10 1639 9 1651 7 ct 
1651 -23 l  1646 -22 1641 -22 1633 -22 ct 1618 -22 1614 -26 1614 -42 ct 1614 -197 l 
1651 -197 l  1651 -226 l  p ef
1896 -233 m  1832 -233 1794 -188 1794 -111 ct 1794 -35 1832 10 1896 10 ct 1960 10 1998 -35 1998 -110 ct 
1998 -188 1961 -233 1896 -233 ct p
1896 -200 m  1937 -200 1961 -166 1961 -110 ct 1961 -57 1936 -23 1896 -23 ct 
1856 -23 1831 -57 1831 -111 ct 1831 -166 1856 -200 1896 -200 ct p ef
2130 -226 m  2093 -226 l  2093 -262 l  2093 -277 2101 -284 2118 -284 ct 2121 -284 2122 -284 2130 -284 ct 
2130 -314 l  2122 -316 2117 -316 2110 -316 ct 2077 -316 2057 -297 2057 -265 ct 
2057 -226 l  2027 -226 l  2027 -197 l  2057 -197 l  2057 0 l  2093 0 l 
2093 -197 l  2130 -197 l  2130 -226 l  p ef
2366 -226 m  2329 -226 l  2329 -288 l  2293 -288 l  2293 -226 l  2262 -226 l 
2262 -197 l  2293 -197 l  2293 -26 l  2293 -3 2308 10 2336 10 ct 2346 10 2354 9 2366 7 ct 
2366 -23 l  2361 -22 2356 -22 2348 -22 ct 2333 -22 2329 -26 2329 -42 ct 2329 -197 l 
2366 -197 l  2366 -226 l  p ef
2405 -315 m  2405 0 l  2441 0 l  2441 -125 l  2441 -171 2465 -201 2502 -201 ct 
2515 -201 2526 -198 2534 -192 ct 2545 -184 2549 -173 2549 -157 ct 2549 0 l  2585 0 l 
2585 -171 l  2585 -209 2558 -233 2514 -233 ct 2482 -233 2462 -223 2441 -195 ct 
2441 -315 l  2405 -315 l  p ef
2838 -101 m  2838 -136 2835 -156 2829 -173 ct 2814 -211 2779 -233 2737 -233 ct 
2674 -233 2633 -185 2633 -110 ct 2633 -35 2672 10 2736 10 ct 2788 10 2824 -19 2833 -69 ct 
2797 -69 l  2787 -39 2766 -23 2737 -23 ct 2714 -23 2695 -34 2683 -53 ct 2674 -66 2671 -79 2671 -101 ct 
2838 -101 l  p
2672 -130 m  2675 -172 2700 -200 2737 -200 ct 2773 -200 2799 -171 2799 -130 ct 
2672 -130 l  p ef
pom
gs
75.99252 lw 582.20133 ml 4073 5087 m  3713 5968 l  ps
gr
gs
3649 6127 m  3630 5871 l  3715 5967 l  3842 5957 l  3649 6127 l  p ef
gr
gs
75.99252 lw 582.20133 ml 3648 6127 m  3629 5871 l  3714 5967 l  3841 5957 l 
3648 6127 l  pc
gr
gs
0.003 0.746 0.949 c 2390 7075 m  2334 6961 2302 6834 2297 6704 ct 2301 6539 2375 6387 2495 6291 ct 
2612 6213 2756 6203 2882 6266 ct 3026 6331 3151 6438 3244 6577 ct 3314 6468 3404 6378 3508 6310 ct 
3636 6226 3790 6208 3931 6261 ct 4099 6356 4201 6552 4191 6761 ct 4170 6942 4106 7113 4008 7259 ct 
3800 7565 3536 7819 3235 8006 ct 3142 7957 3055 7895 2977 7820 ct 2803 7659 2648 7477 2514 7276 ct 
2749 7276 l  2793 7275 2832 7246 2851 7202 ct 2918 7055 l  2966 7608 l  2975 7647 3003 7677 3039 7685 ct 
3074 7694 3111 7678 3134 7646 ct 3298 7282 l  3857 7282 l  3895 7267 3920 7227 3920 7183 ct 
3920 7138 3895 7098 3857 7083 ct 3254 7085 l  3219 7081 3186 7098 3166 7130 ct 
3115 7244 l  3063 6677 l  3049 6645 3023 6624 2992 6618 ct 2961 6612 2930 6624 2908 6649 ct 
2705 7077 l  2390 7075 l  p ef
gr
pum
12185 7789 t
231 -21 m  227 -20 226 -20 223 -20 ct 211 -20 204 -27 204 -38 ct 204 -171 l 
204 -211 175 -233 119 -233 ct 86 -233 59 -223 44 -207 ct 33 -195 29 -182 28 -160 ct 
64 -160 l  67 -187 84 -200 118 -200 ct 150 -200 168 -188 168 -166 ct 168 -156 l 
168 -141 160 -135 130 -131 ct 79 -125 72 -123 58 -118 ct 32 -106 18 -86 18 -57 ct 
18 -16 47 10 92 10 ct 121 10 144 0 169 -23 ct 172 0 183 10 206 10 ct 214 10 219 9 231 6 ct 
231 -21 l  p
168 -71 m  168 -59 165 -52 154 -42 ct 139 -28 121 -22 100 -22 ct 72 -22 56 -35 56 -58 ct 
56 -82 71 -94 110 -99 ct 149 -105 156 -106 168 -112 ct 168 -71 l  p ef
359 -233 m  295 -233 257 -188 257 -111 ct 257 -35 295 10 359 10 ct 423 10 461 -35 461 -110 ct 
461 -188 424 -233 359 -233 ct p
359 -200 m  400 -200 424 -166 424 -110 ct 424 -57 399 -23 359 -23 ct 319 -23 294 -57 294 -111 ct 
294 -166 319 -200 359 -200 ct p ef
513 -226 m  513 0 l  549 0 l  549 -117 l  550 -172 572 -196 622 -195 ct 622 -231 l 
616 -233 612 -233 608 -233 ct 585 -233 567 -219 546 -185 ct 546 -226 l  513 -226 l 
p ef
737 -226 m  700 -226 l  700 -288 l  664 -288 l  664 -226 l  633 -226 l 
633 -197 l  664 -197 l  664 -26 l  664 -3 679 10 707 10 ct 717 10 725 9 737 7 ct 
737 -23 l  732 -22 727 -22 719 -22 ct 704 -22 700 -26 700 -42 ct 700 -197 l 
737 -197 l  737 -226 l  p ef
976 -21 m  972 -20 971 -20 968 -20 ct 956 -20 949 -27 949 -38 ct 949 -171 l 
949 -211 920 -233 864 -233 ct 831 -233 804 -223 789 -207 ct 778 -195 774 -182 773 -160 ct 
809 -160 l  812 -187 829 -200 863 -200 ct 895 -200 913 -188 913 -166 ct 913 -156 l 
913 -141 905 -135 875 -131 ct 824 -125 817 -123 803 -118 ct 777 -106 763 -86 763 -57 ct 
763 -16 792 10 837 10 ct 866 10 889 0 914 -23 ct 917 0 928 10 951 10 ct 959 10 964 9 976 6 ct 
976 -21 l  p
913 -71 m  913 -59 910 -52 899 -42 ct 884 -28 866 -22 845 -22 ct 817 -22 801 -35 801 -58 ct 
801 -82 816 -94 855 -99 ct 894 -105 901 -106 913 -112 ct 913 -71 l  p ef
pom
0 7158 t 
pom
count op_count sub {pop} repeat countdictstack dict_count sub {end} repeat b4_inc_state restore
%%PageTrailer
%%Trailer
%%EOF
