%time,s[0]  LV_V[1] LV_P[2] LA_V[3] LA_P[4] flow_av[5] av_angle[6] mi_angle[7] P_aorta_end[8] H_pump[9] Q_pump[10] Q_total[11]
3.55862e-05 267.617 9.82447 19.6402 4.7743 -0.000841652 -0.747129 -0.622635 55.8666 45.9573 16.498 17.763
0.0100424 267.45 10.1157 20.0083 4.89818 -0.000837371 -0.746545 -0.622364 55.6901 45.4868 16.766 18.0256
0.0200529 267.281 10.9407 20.4214 5.03578 -0.00082814 -0.745275 -0.629455 55.5182 44.4856 17.1642 18.3699
0.0300103 267.107 12.2796 20.8742 5.18536 -0.000814112 -0.743317 -0.639968 55.3604 42.9821 17.7856 18.8507
0.040028 266.924 14.1304 21.3689 5.34767 -0.000795106 -0.74061 -0.652201 55.2231 40.9833 18.7186 19.6153
0.0500487 266.731 16.4633 21.8999 5.52092 -0.00077108 -0.737094 -0.664798 55.1103 38.5216 20.0268 20.7388
0.0600149 266.523 19.2312 22.4606 5.70299 -0.000742079 -0.732701 -0.676953 55.026 35.6469 21.7502 22.2439
0.0700398 266.294 22.4297 23.0543 5.89492 -0.000707585 -0.727247 -0.688451 54.9739 32.3649 23.9429 24.1833
0.0800089 266.042 25.9811 23.671 6.09345 -0.000667692 -0.720597 -0.699029 54.9585 28.7559 26.5971 26.563
0.0900348 265.76 29.879 24.3144 6.29977 -0.000621471 -0.712377 -0.708785 54.9822 24.826 29.7429 29.4151
0.100002 265.446 34.0286 24.9739 6.51049 -0.000568691 -0.702207 -0.717636 55.047 20.6703 33.3274 32.6935
0.110024 265.092 38.4227 25.654 6.72695 -0.000507451 -0.689151 -0.725734 55.1552 16.2949 37.3582 36.4084
0.120043 264.696 42.9813 26.3478 6.94697 -0.000435607 -0.671659 -0.733084 55.3069 11.7784 41.7675 40.5009
0.130053 264.254 47.6438 27.052 7.16945 -0.000347961 -0.64592 -0.739742 55.5018 7.17988 46.4918 44.9137
0.140049 263.765 52.3498 27.7636 7.39339 -0.000228883 -0.597955 -0.745759 55.7386 2.55794 51.458 49.5797
0.150031 263.226 57.0411 28.4797 7.6179 0.000124303 0.374819 -0.751186 56.0154 -2.03065 56.5879 54.4258
0.160051 262.599 60.6548 29.2016 7.84334 34.7118 63.2441 -0.754985 56.3303 -5.5234 61.8065 59.3927
0.170013 261.36 63.9469 29.9202 8.06683 67.7092 64.3181 -0.758222 61.8852 -3.3426 66.138 119.787
0.180036 259.776 66.0327 30.6416 8.29027 130.008 74.7529 -0.7601 62.9627 -4.38845 69.8166 167.988
0.190018 257.625 68.6999 31.3566 8.51075 157.541 74.2871 -0.762478 66.1676 -3.81461 72.5673 216.615
0.200045 255.116 70.6902 32.0693 8.72956 193.685 75.3533 -0.76414 68.6058 -3.34003 74.8057 250.088
0.210028 252.337 72.8033 32.7716 8.94418 211.543 75.2492 -0.765869 70.9074 -3.13161 76.5134 273.817
0.220043 249.377 74.6764 33.4671 9.15574 224.016 75.405 -0.76734 72.9966 -2.91674 77.8575 288.385
0.230003 246.338 76.3801 34.1482 9.36192 228.696 75.4645 -0.768635 74.91 -2.72707 78.8887 295.824
0.240026 243.249 77.8693 34.8217 9.56475 228.077 75.4326 -0.769725 76.634 -2.53004 79.6843 297.337
0.250022 240.194 79.1312 35.48 9.76196 222.472 75.4409 -0.770611 78.146 -2.33226 80.2809 293.861
0.260001 237.216 80.1556 36.1226 9.95346 212.703 75.434 -0.771295 79.436 -2.13099 80.7185 286.054
0.270027 234.338 80.9454 36.7524 10.1401 199.175 75.4231 -0.771785 80.5025 -1.92776 81.0298 274.432
0.280002 231.623 81.4913 37.3624 10.3197 182.487 75.4104 -0.77208 81.3275 -1.72772 81.2371 259.57
0.29004 229.072 81.7998 37.9584 10.4942 162.837 75.3924 -0.772188 81.9135 -1.53284 81.3641 241.706
0.300047 226.737 81.8486 38.5338 10.6616 140.68 75.3677 -0.772093 82.2486 -1.32888 81.427 221.357
0.310031 224.849 76.2462 39.0886 10.8219 55.5824 74.2567 -0.767256 81.0958 3.01934 81.0668 185.566
0.320036 224.325 60.9698 39.6244 10.9756 -101.699 63.8129 -0.751846 72.3329 9.33543 79.7171 49.0202
0.330019 223.757 33.7364 40.1383 11.1219 -0.000814224 -0.743333 -0.706395 78.7979 43.2499 75.0368 20.0612
0.340052 223.053 14.5687 40.6332 11.2616 -0.00101474 -0.768561 -0.596496 80.3884 64.5358 64.8751 93.1582
0.350005 222.464 7.88624 41.1024 11.3927 -0.00102795 -0.770042 25.4743 76.1252 67.3583 53.9268 81.5885
0.360034 223.244 8.44255 40.2822 10.4941 -0.00101816 -0.768946 68.0876 74.8334 65.7519 44.8991 35.6905
0.370006 224.697 9.10697 38.8592 9.52717 -0.00101842 -0.768975 74.3637 75.8596 66.3133 37.2954 32.62
0.380028 226.271 8.94703 37.3831 9.34773 -0.00101376 -0.76845 73.7043 75.8447 66.6071 30.6429 37.6856
0.390012 227.802 8.8925 36.0096 9.09387 -0.00100642 -0.767616 74.1905 75.0502 65.9638 24.989 29.3804
0.400014 228.956 8.82682 35.0677 8.95124 -0.00100454 -0.767402 74.278 74.5593 65.6068 20.0862 22.3427
0.410023 229.942 8.78811 34.3429 8.83559 -0.00100297 -0.767223 75.3188 74.1379 65.2726 15.7809 18.8841
0.420038 230.739 8.74113 33.8512 8.78499 -0.000999436 -0.766819 74.5562 73.6334 64.8476 12.0395 15.6492
0.43001 231.394 8.72199 33.5383 8.75204 -0.000995725 -0.766392 74.5924 73.1447 64.3982 8.93408 12.0328
0.440046 231.972 8.71666 33.3374 8.73326 -0.00099231 -0.765999 74.9678 72.7106 63.9814 6.41776 9.29069
0.450036 232.491 8.71659 33.2198 8.72934 -0.000988897 -0.765604 75.3262 72.2847 63.5621 4.46216 7.50442
0.460035 232.973 8.72281 33.1622 8.73353 -0.00098539 -0.765197 75.0867 71.8461 63.1207 2.98209 6.02292
0.470043 233.431 8.73334 33.1452 8.74294 -0.000981955 -0.764797 74.9886 71.4132 62.6789 1.90016 4.83371
0.480004 233.872 8.74672 33.1554 8.7555 -0.000978603 -0.764405 75.0395 70.9945 62.2475 1.14348 4.01997
0.490029 234.309 8.76193 33.1835 8.77028 -0.000975227 -0.764009 75.163 70.5803 61.8183 0.637194 3.48375
0.500008 234.739 8.77815 33.2231 8.78627 -0.000971879 -0.763615 75.2324 70.1739 61.3958 0.331881 3.13571
0.51005 235.17 8.7951 33.2705 8.80311 -0.000968551 -0.763222 75.163 69.7716 60.9766 0.178878 2.93887
0.520045 235.597 8.8123 33.3223 8.82028 -0.000965274 -0.762833 75.1298 69.3771 60.5649 0.144014 2.8688
0.530049 236.025 8.82965 33.377 8.83764 -0.000962026 -0.762447 75.1583 68.9875 60.1579 0.198338 2.88983
0.540005 236.45 8.84693 33.4329 8.85495 -0.000958824 -0.762065 75.1945 68.6048 59.758 0.319681 2.9762
0.550024 236.878 8.86425 33.4899 8.87232 -0.000955634 -0.761683 75.1863 68.2251 59.3608 0.493102 3.11535
0.560051 237.306 8.88147 33.5473 8.8896 -0.000952472 -0.761303 75.1651 67.8501 58.9686 0.705624 3.29529
0.57003 237.73 8.89846 33.6043 8.90665 -0.000949356 -0.760928 75.1675 67.4819 58.5833 0.946399 3.50428
0.580017 238.155 8.91529 33.661 8.92354 -0.000946268 -0.760555 75.1815 67.1182 58.2026 1.20947 3.73581
0.590012 238.578 8.93197 33.7173 8.94027 -0.000943208 -0.760183 75.1836 66.7591 57.8265 1.48952 3.98469
0.600014 239 8.94847 33.7731 8.95682 -0.000940176 -0.759814 75.1761 66.4043 57.455 1.78251 4.24686
0.610023 239.421 8.9648 33.8285 8.97319 -0.000937171 -0.759448 75.1743 66.054 57.088 2.0854 4.51913
0.620039 239.84 8.98095 33.8832 8.98938 -0.000934195 -0.759083 75.179 65.7081 56.7255 2.39587 4.79918
0.630007 240.255 8.99683 33.937 9.00529 -0.000931262 -0.758723 75.1812 65.3684 56.3694 2.7104 5.08367
0.640038 240.67 9.01262 33.9906 9.02111 -0.000928341 -0.758363 75.1789 65.0311 56.0157 3.03119 5.37442
0.65002 241.08 9.02813 34.0432 9.03665 -0.000925465 -0.758007 75.1776 64.6999 55.6684 3.35366 5.66718
0.660009 241.488 9.04347 34.0952 9.052 -0.000922616 -0.757654 75.179 64.373 55.3255 3.67885 5.96278
0.670005 241.893 9.05862 34.1466 9.06715 -0.000919795 -0.757303 75.1801 64.0503 54.9868 4.00617 6.26065
0.680008 242.295 9.07358 34.1974 9.08212 -0.000917002 -0.756955 75.1795 63.7317 54.6525 4.33519 6.56035
0.690017 242.695 9.08835 34.2475 9.09689 -0.000914237 -0.756609 75.1788 63.4174 54.3224 4.66557 6.86153
0.700033 243.091 9.10293 34.297 9.11147 -0.0009115 -0.756265 75.1791 63.1071 53.9966 4.99706 7.16394
0.710055 243.484 9.11732 34.3459 9.12585 -0.000908792 -0.755924 75.1795 62.8011 53.6751 5.32947 7.46738
0.720028 243.871 9.13144 34.3938 9.13996 -0.000906128 -0.755588 75.1793 62.5008 53.3596 5.6608 7.77002
0.730007 244.256 9.14537 34.4411 9.15387 -0.000903491 -0.755254 75.1789 62.2046 53.0482 5.9928 8.07343
0.740048 244.638 9.15918 34.488 9.16766 -0.000900869 -0.754921 75.1788 61.9108 52.7393 6.32725 8.37924
0.75004 245.015 9.17271 34.534 9.18117 -0.00089829 -0.754592 75.1789 61.6227 52.4363 6.66038 8.684
0.760037 245.388 9.18604 34.5793 9.19448 -0.000895739 -0.754266 75.1787 61.3385 52.1375 6.994 8.98935
0.77004 245.758 9.19918 34.624 9.20759 -0.000893218 -0.753943 75.1784 61.0584 51.8427 7.3281 9.29528
0.78005 246.123 9.21212 34.668 9.22049 -0.000890725 -0.753623 75.1782 60.7823 51.5521 7.66266 9.60178
0.790009 246.482 9.22478 34.7111 9.23312 -0.000888276 -0.753308 75.178 60.5116 51.2671 7.9958 9.90711
0.80003 246.84 9.23732 34.7537 9.24562 -0.000885841 -0.752993 75.1778 60.2434 50.9846 8.33128 10.2147
0.810056 247.193 9.24965 34.7957 9.25791 -0.000883437 -0.752682 75.1776 59.9791 50.7062 8.66723 10.5229
0.820032 247.54 9.2617 34.8367 9.26993 -0.000881074 -0.752375 75.1773 59.7201 50.4334 9.00179 10.8299
0.830013 247.883 9.27356 34.8771 9.28174 -0.000878741 -0.752071 75.177 59.4651 50.1645 9.33684 11.1376
0.84 248.222 9.28521 34.9168 9.29335 -0.000876438 -0.75177 75.1767 59.2139 49.8997 9.67242 11.4458
0.850049 248.558 9.29672 34.956 9.30481 -0.000874151 -0.751471 75.1764 58.9651 49.6373 10.0104 11.7564
0.860046 248.887 9.30795 34.9944 9.31601 -0.000871907 -0.751176 75.1761 58.7216 49.3804 10.3472 12.066
0.870048 249.213 9.31898 35.032 9.32699 -0.000869693 -0.750885 75.1758 58.4819 49.1275 10.6845 12.3762
0.880056 249.534 9.32981 35.069 9.33776 -0.000867509 -0.750597 75.1755 58.246 48.8785 11.0224 12.6872
0.890012 249.848 9.34036 35.105 9.34827 -0.000865366 -0.750313 75.1751 58.0152 48.6347 11.3592 12.9972
0.900029 250.16 9.35437 35.1404 9.36249 -0.00086321 -0.750028 75.1748 57.7868 48.3899 11.6986 13.3097
0.910052 251.248 10.4291 34.3933 10.674 -0.000851562 -0.748471 75.364 57.5659 47.0912 12.1267 13.6629
0.920022 254.765 12.2083 31.1925 13.1826 -0.000833472 -0.74601 75.4351 57.3646 45.1048 12.8665 14.212
0.930054 260.004 13.2943 26.2251 14.7002 -0.000821733 -0.744385 75.4616 57.184 43.8298 13.87 15.0848
0.940033 265.373 13.0631 21.0653 14.2006 -0.000822315 -0.744466 75.4546 57.0119 43.8799 14.8657 16.1053
0.950015 269.544 11.9162 17.0494 12.419 -0.000831313 -0.745713 75.4094 56.8318 44.8396 15.6189 16.9538
0.960001 271.696 10.6266 15.0194 10.6906 -0.000841407 -0.747096 75.3049 56.6407 45.9338 16.0562 17.4569
0.970048 271.683 9.58558 15.1413 9.55507 -0.000849071 -0.748135 75.0861 56.4423 46.7746 16.2379 17.6611
0.980042 269.872 8.89687 17.0611 8.4436 -0.000853491 -0.74873 74.153 56.2429 47.2637 16.257 17.6878
0.990041 267.84 9.52555 19.2164 5.88306 -0.000845996 -0.747719 62.5197 56.0466 46.4385 16.2834 17.6681
